Division,WeightClassKg,Place,Name,Team,BodyweightKg,Best3SquatKg,Best3BenchKg,Best3DeadliftKg,TotalKg,Equipment,Event,Sex,BirthDate
Boys,51.71,1,Kevin Ibanez,Troy,51.53,161.03,102.06,163.29,426.38,Unlimited,SBD,M,
Boys,51.71,2,Isaac Compaore,Killeen Harker Heights,51.71,104.33,74.84,145.15,324.32,Unlimited,SBD,M,
Boys,51.71,3,Xavier Mondragon,McGregor,48.72,113.4,63.5,113.4,290.3,Unlimited,SBD,M,
Boys,51.71,4,Cody Jarrett,Killeen Harker Heights,51.17,97.52,65.77,124.74,288.03,Unlimited,SBD,M,
Boys,51.71,5,Aiden Pankow,Gatesville,45.63,81.65,40.82,99.79,222.26,Unlimited,SBD,M,
Boys,51.71,DQ,Bryen Hooper,Waco Connally,50.98,113.4,,,,Unlimited,SBD,M,
Boys,55.79,1,Thomas Herrera,West,55.52,167.83,108.86,188.24,464.93,Unlimited,SBD,M,
Boys,55.79,2,Jacob Havelka,McGregor,55.16,161.03,108.86,161.03,430.91,Unlimited,SBD,M,
Boys,55.79,3,Landon Powers,Troy,55.61,147.42,104.33,151.95,403.7,Unlimited,SBD,M,
Boys,55.79,4,Sergio Bucio,Gatesville,55.61,142.88,83.91,136.08,362.87,Unlimited,SBD,M,
Boys,55.79,5,Keith McKenzie,China Spring,55.79,120.2,90.72,131.54,342.46,Unlimited,SBD,M,
Boys,55.79,DQ,Nash Delong,Grandview,53.98,,,,,Unlimited,SBD,M,
Boys,59.87,1,Nicholas Thompson,West,58.79,172.37,131.54,204.12,508.02,Unlimited,SBD,M,
Boys,59.87,2,Peyton Valdez,Troy,59.78,190.51,117.93,179.17,487.61,Unlimited,SBD,M,
Boys,59.87,3,Caden Brister,Gatesville,56.25,165.56,95.25,188.24,449.06,Unlimited,SBD,M,
Boys,59.87,4,Enrique Chavarria,Moody,58.51,154.22,92.99,165.56,412.77,Unlimited,SBD,M,
Boys,59.87,5,Kason Grant,China Spring,56.34,102.06,81.65,111.13,294.84,Unlimited,SBD,M,
Boys,59.87,DQ,Adrian Martinez #19,Waco La Vega,56.15,142.88,,,,Unlimited,SBD,M,
Boys,67.13,1,Garrett Maddox,China Spring,65.41,188.24,122.47,206.38,517.1,Unlimited,SBD,M,
Boys,67.13,2,Kaden Schnieder,Troy,66.32,208.65,115.67,185.97,510.29,Unlimited,SBD,M,
Boys,67.13,3,Cannon Cook,West,66.86,185.97,99.79,199.58,485.34,Unlimited,SBD,M,
Boys,67.13,4,Blake Franks,McGregor,66.22,161.03,104.33,188.24,453.59,Unlimited,SBD,M,
Boys,67.13,5,Parker Montasser,West,66.86,170.1,104.33,174.63,449.06,Unlimited,SBD,M,
Boys,67.13,6,Camden Durant,Waco Connally,66.68,170.1,95.25,142.88,408.23,Unlimited,SBD,M,
Boys,67.13,7,Caleb Same,Valley Mills,67.04,133.81,83.91,147.42,365.14,Unlimited,SBD,M,
Boys,67.13,DQ,Tavian Spencer,Killeen Harker Heights,66.04,,,,,Unlimited,SBD,M,
Boys,74.84,1,Lj Hall,Gatesville,71.85,204.12,174.63,208.65,587.4,Unlimited,SBD,M,
Boys,74.84,2,Gage Gonzales,Robinson,71.58,204.12,127.01,208.65,539.77,Unlimited,SBD,M,
Boys,74.84,3,Coy Klish,West,73.12,204.12,133.81,201.85,539.77,Unlimited,SBD,M,
Boys,74.84,4,Matthew Rodriguez,China Spring,72.12,201.85,138.35,195.04,535.24,Unlimited,SBD,M,
Boys,74.84,5,Adain Dalton,Troy,72.12,195.04,127.01,192.78,514.83,Unlimited,SBD,M,
Boys,74.84,6,Marc Valdez,McGregor,67.31,192.78,111.13,204.12,508.02,Unlimited,SBD,M,
Boys,74.84,7,Greg Jewell,Lorena,74.84,185.97,120.2,195.04,501.22,Unlimited,SBD,M,
Boys,74.84,8,Charles Pillard,Grandview,72.85,188.24,102.06,181.44,471.74,Unlimited,SBD,M,
Boys,74.84,9,Bolton Garrett,China Spring,67.77,151.95,90.72,206.38,449.06,Unlimited,SBD,M,
Boys,74.84,10,Thomas Zentner,Grandview,71.12,161.03,115.67,161.03,437.72,Unlimited,SBD,M,
Boys,74.84,11,Cooper Pembleton,Valley Mills,71.3,161.03,104.33,158.76,424.11,Unlimited,SBD,M,
Boys,74.84,12,Marion Perez,West,73.48,172.37,108.86,136.08,417.3,Unlimited,SBD,M,
Boys,74.84,13,Hunter Petter,West,74.39,161.03,92.99,161.03,415.04,Unlimited,SBD,M,
Boys,74.84,14,Kai Cook,West,68.31,149.69,90.72,172.37,412.77,Unlimited,SBD,M,
Boys,74.84,15,Joel Borden,Moody,69.4,136.08,90.72,154.22,381.02,Unlimited,SBD,M,
Boys,74.84,16,Keiton Tindell,Robinson,73.94,145.15,90.72,142.88,378.75,Unlimited,SBD,M,
Boys,74.84,17,Caleb Stinson,Moody,67.4,140.61,74.84,149.69,365.14,Unlimited,SBD,M,
Boys,74.84,18,Carson Sleeper,Lorena,70.58,120.2,99.79,113.4,333.39,Unlimited,SBD,M,
Boys,74.84,19,Jonathan Pena,Waco Connally,67.4,106.59,61.23,127.01,294.84,Unlimited,SBD,M,
Boys,74.84,DQ,Landyn Berry,Lorena,69.22,165.56,111.13,,,Unlimited,SBD,M,
Boys,82.1,1,Devin Hill,Waco La Vega,81.92,210.92,138.35,226.8,576.06,Unlimited,SBD,M,
Boys,82.1,2,Landon Alonzo,China Spring,76.48,208.65,138.35,208.65,555.65,Unlimited,SBD,M,
Boys,82.1,3,David Sims,Gatesville,81.92,195.04,138.35,201.85,535.24,Unlimited,SBD,M,
Boys,82.1,4,Brayden Mills,Gatesville,80.92,195.04,117.93,217.72,530.7,Unlimited,SBD,M,
Boys,82.1,5,Robert Atkins,China Spring,78.11,188.24,124.74,201.85,514.83,Unlimited,SBD,M,
Boys,82.1,6,Ryan Gulledge,Troy,80.74,185.97,115.67,199.58,501.22,Unlimited,SBD,M,
Boys,82.1,7,Keith Daily,Moody,81.92,201.85,104.33,181.44,487.61,Unlimited,SBD,M,
Boys,82.1,8,Preston Carroll,Grandview,79.74,174.63,102.06,192.78,469.47,Unlimited,SBD,M,
Boys,82.1,9,Edgar Ontiveros,McGregor,80.92,188.24,111.13,170.1,469.47,Unlimited,SBD,M,
Boys,82.1,10,Will Haferkamp,China Spring,81.37,165.56,124.74,179.17,469.47,Unlimited,SBD,M,
Boys,82.1,11,Matthew Crosley,McGregor,76.93,163.29,108.86,170.1,442.25,Unlimited,SBD,M,
Boys,82.1,12,Artis Varnado,Waco Connally,77.56,154.22,92.99,158.76,405.97,Unlimited,SBD,M,
Boys,82.1,13,Jacob Galbreth,Valley Mills,79.56,156.49,79.38,151.95,387.82,Unlimited,SBD,M,
Boys,82.1,14,Hunter Crabtree,Killeen Harker Heights,79.74,90.72,68.04,151.95,310.71,Unlimited,SBD,M,
Boys,82.1,DQ,Lathan Driver,Grandview,77.84,,,,,Unlimited,SBD,M,
Boys,82.1,DQ,Kennan Lewis,Valley Mills,77.38,,,,,Unlimited,SBD,M,
Boys,82.1,DQ,Ladarric Childers,Waco Connally,78.29,170.1,,,,Unlimited,SBD,M,
Boys,82.1,DQ,Tobias Cunningham,Waco Connally,81.1,,,,,Unlimited,SBD,M,
Boys,89.81,1,Jeremiah Jones,Waco La Vega,89.72,258.55,154.22,217.72,630.49,Unlimited,SBD,M,
Boys,89.81,2,Jw Arnold,McGregor,88.81,233.6,163.29,219.99,616.89,Unlimited,SBD,M,
Boys,89.81,3,Kade Donohoe,Troy,88.9,226.8,151.95,215.46,594.21,Unlimited,SBD,M,
Boys,89.81,4,Corey Burns,Gatesville,88.63,208.65,154.22,217.72,580.6,Unlimited,SBD,M,
Boys,89.81,5,Nathan Elliott,Gatesville,87.09,213.19,147.42,199.58,560.19,Unlimited,SBD,M,
Boys,89.81,6,Dutch Nielson,Gatesville,82.46,208.65,140.61,201.85,551.11,Unlimited,SBD,M,
Boys,89.81,7,Shayne Adams,West,87.09,188.24,111.13,201.85,501.22,Unlimited,SBD,M,
Boys,89.81,8,Zach Ijams,West,88.27,192.78,111.13,192.78,496.68,Unlimited,SBD,M,
Boys,89.81,9,Hayden Strahan,McGregor,87.27,183.7,106.59,181.44,471.74,Unlimited,SBD,M,
Boys,89.81,10,Caden Benton,Gatesville,86,158.76,127.01,183.7,469.47,Unlimited,SBD,M,
Boys,89.81,11,Brett Holloman,West,89.72,181.44,113.4,174.63,469.47,Unlimited,SBD,M,
Boys,89.81,12,Javin Henson,Valley Mills,89.36,170.1,104.33,172.37,446.79,Unlimited,SBD,M,
Boys,89.81,13,Roy Hitt,Waco Connally,89.45,167.83,122.47,147.42,437.72,Unlimited,SBD,M,
Boys,89.81,14,Dylan Anderson,Robinson,86.64,149.69,90.72,170.1,410.5,Unlimited,SBD,M,
Boys,89.81,15,Jaden Hicks,Moody,84.37,149.69,79.38,138.35,367.41,Unlimited,SBD,M,
Boys,89.81,16,Roman Luna,Moody,89.72,136.08,72.57,142.88,351.53,Unlimited,SBD,M,
Boys,89.81,DQ,Kyle Wright,Valley Mills,83.1,179.17,,,,Unlimited,SBD,M,
Boys,99.79,1,Joseph Tuck,Troy,97.52,276.69,183.7,242.67,703.07,Unlimited,SBD,M,
Boys,99.79,2,Wyatt Jones,Lorena,98.88,276.69,167.83,258.55,703.07,Unlimited,SBD,M,
Boys,99.79,3,Ray Jones,Gatesville,97.25,238.14,151.95,238.14,628.23,Unlimited,SBD,M,
Boys,99.79,4,Steven Druppal,McGregor,96.25,217.72,140.61,215.46,573.79,Unlimited,SBD,M,
Boys,99.79,5,Tim Morgan,China Spring,98.34,192.78,154.22,208.65,555.65,Unlimited,SBD,M,
Boys,99.79,6,Tyrone Shed,Waco Connally,95.71,192.78,133.81,206.38,532.97,Unlimited,SBD,M,
Boys,99.79,7,Jaden Curry,Waco Connally,91.17,204.12,117.93,206.38,528.44,Unlimited,SBD,M,
Boys,99.79,8,Marcus Jackson,Waco La Vega,90.08,188.24,147.42,183.7,519.36,Unlimited,SBD,M,
Boys,99.79,9,Dylan Plake,Killeen Harker Heights,91.9,197.31,129.27,188.24,514.83,Unlimited,SBD,M,
Boys,99.79,10,Landyn Gerick,China Spring,94.44,206.38,113.4,188.24,508.02,Unlimited,SBD,M,
Boys,99.79,11,Hillario Mata,Waco La Vega,94.71,197.31,120.2,188.24,505.76,Unlimited,SBD,M,
Boys,99.79,12,Jeremiah Cruz,McGregor,93.62,192.78,124.74,185.97,503.49,Unlimited,SBD,M,
Boys,99.79,13,Doniven Hines,Waco Connally,89.99,204.12,124.74,170.1,498.95,Unlimited,SBD,M,
Boys,99.79,14,Kaden Coffman,Gatesville,94.8,195.04,131.54,163.29,489.88,Unlimited,SBD,M,
Boys,99.79,15,Aaron Ruiz,Robinson,99.7,181.44,111.13,165.56,458.13,Unlimited,SBD,M,
Boys,99.79,16,Brayden Driskell,Waco Connally,90.9,165.56,120.2,167.83,453.59,Unlimited,SBD,M,
Boys,99.79,17,Brayden Sinclair,Killeen Harker Heights,99.06,145.15,122.47,174.63,442.25,Unlimited,SBD,M,
Boys,99.79,DQ,Cade Balch,Waco La Vega,97.34,222.26,147.42,,,Unlimited,SBD,M,
Boys,99.79,DQ,Jessie Landrum,Robinson,99.79,,,,,Unlimited,SBD,M,
Boys,99.79,DQ,Jonathan Lopez,Robinson,98.61,,,,,Unlimited,SBD,M,
Boys,109.77,1,Cj Porter,Troy,106.14,244.94,140.61,260.82,646.37,Unlimited,SBD,M,
Boys,109.77,2,Christan Teichelman,Valley Mills,104.05,233.6,167.83,226.8,628.23,Unlimited,SBD,M,
Boys,109.77,3,Nolan Baden,Lorena,106.05,240.4,163.29,197.31,601.01,Unlimited,SBD,M,
Boys,109.77,4,Cooper Key,Lorena,104.87,240.4,124.74,217.72,582.87,Unlimited,SBD,M,
Boys,109.77,5,Llyod Buck,Lorena,107.32,226.8,147.42,204.12,578.33,Unlimited,SBD,M,
Boys,109.77,6,Esequiel Castro,Waco La Vega,107.5,215.46,142.88,208.65,566.99,Unlimited,SBD,M,
Boys,109.77,7,Bryson Leal,China Spring,,204.12,133.81,201.85,539.77,Unlimited,SBD,M,
Boys,109.77,8,Bryce Castillo,Grandview,102.51,219.99,120.2,192.78,532.97,Unlimited,SBD,M,
Boys,109.77,9,Zach Vera,Lorena,105.96,181.44,136.08,190.51,508.02,Unlimited,SBD,M,
Boys,109.77,10,Michael Denn,McGregor,102.78,183.7,117.93,201.85,503.49,Unlimited,SBD,M,
Boys,109.77,11,Eduardo Paz,Valley Mills,102.69,197.31,106.59,183.7,487.61,Unlimited,SBD,M,
Boys,109.77,12,Jecari Atoigne,Killeen Harker Heights,105.41,176.9,127.01,170.1,474,Unlimited,SBD,M,
Boys,109.77,13,Michael Bryant,Waco La Vega,107.41,190.51,115.67,165.56,471.74,Unlimited,SBD,M,
Boys,109.77,DQ,Ruben Flores,Valley Mills,106.68,188.24,,,,Unlimited,SBD,M,
Boys,124.74,1,Tyler Wachtendorf,Lorena,120.02,260.82,174.63,217.72,653.17,Unlimited,SBD,M,
Boys,124.74,2,Pablo Rodriguez,Waco La Vega,122.92,249.48,167.83,190.51,607.81,Unlimited,SBD,M,
Boys,124.74,3,Carter Norman,Lorena,118.21,240.4,142.88,217.72,601.01,Unlimited,SBD,M,
Boys,124.74,4,Jett Coleman,Troy,109.86,226.8,145.15,208.65,580.6,Unlimited,SBD,M,
Boys,124.74,5,Zaith Gonzalez,Waco La Vega,117.39,219.99,120.2,165.56,505.76,Unlimited,SBD,M,
Boys,124.74,6,James Kerney,Killeen Harker Heights,115.76,188.24,133.81,179.17,501.22,Unlimited,SBD,M,
Boys,139.71,1,Jackson Blackwell,Lorena,137.08,308.44,208.65,272.16,789.25,Unlimited,SBD,M,
Boys,139.71,2,Eythan Thompson,Waco La Vega,137.8,317.51,206.38,254.01,777.91,Unlimited,SBD,M,
Boys,139.71,3,Johnavion Dees,Troy,133.72,206.38,172.37,226.8,605.55,Unlimited,SBD,M,
Boys,139.71,4,Lucas Vance,McGregor,127.19,244.94,147.42,199.58,591.94,Unlimited,SBD,M,
Boys,139.71,5,Armani Colon,Killeen Harker Heights,134.44,192.78,154.22,179.17,526.17,Unlimited,SBD,M,
Boys,139.71,6,Ryder Stevens,Troy,127.1,181.44,111.13,147.42,439.98,Unlimited,SBD,M,
Boys,139.71,7,Bryan Young,Waco Connally,132.45,170.1,102.06,158.76,430.91,Unlimited,SBD,M,
Boys,139.71+,1,Zach Bryant,Gatesville,144.97,303.91,201.85,247.21,752.96,Unlimited,SBD,M,
Boys,139.71+,DQ,Jha'quavion Johnson,Waco La Vega,154.04,272.16,165.56,,,Unlimited,SBD,M,
Boys,139.71+,DQ,Alfonso Sanchez,Robinson,142.7,226.8,163.29,,,Unlimited,SBD,M,
Boys,,NS,Gage Sanders,Robinson,,,,,,Unlimited,SBD,M,
Boys,,NS,Marvin Hatcher,Killeen Harker Heights,,,,,,Unlimited,SBD,M,
Boys,,NS,Jaylen Mason,Killeen Harker Heights,,,,,,Unlimited,SBD,M,
