Division,WeightClassKg,Place,Name,Team,BodyweightKg,Best3SquatKg,Best3BenchKg,Best3DeadliftKg,TotalKg,Equipment,Event,Sex
Boys,51.71,1,Antonio Menendez,Carrollton Turner,48.08,74.84,43.09,90.72,208.65,Single-ply,SBD,M
Boys,55.79,1,Zach Sasser,Lake Dallas,53.98,81.65,49.9,97.52,229.06,Single-ply,SBD,M
Boys,59.87,1,Ryan Arnold #6,Carrollton Ranchview,59.42,122.47,63.5,142.88,328.85,Single-ply,SBD,M
Boys,59.87,2,Horatio Gates,Carrollton Ranchview,57.83,97.52,83.91,138.35,319.78,Single-ply,SBD,M
Boys,59.87,3,Adam Tipps,Lake Dallas,58.97,120.2,63.5,136.08,319.78,Single-ply,SBD,M
Boys,59.87,4,Alexis Castellanos,Carrollton Turner,59.65,74.84,43.09,99.79,217.72,Single-ply,SBD,M
Boys,67.13,1,Manny Anzures,Carrollton Creekview,66,151.95,99.79,174.63,426.38,Single-ply,SBD,M
Boys,74.84,2,Matt Stockard,Lake Dallas,67.36,149.69,90.72,172.37,412.77,Single-ply,SBD,M
Boys,67.13,3,Alan Garcia,Carrollton Turner,65.77,156.49,88.45,156.49,401.43,Single-ply,SBD,M
Boys,67.13,4,Jesus Marjan,Carrollton Turner,66.9,149.69,79.38,170.1,399.16,Single-ply,SBD,M
Boys,67.13,5,Gregory Jordan,Carrollton Creekview,64.41,136.08,83.91,142.88,362.87,Single-ply,SBD,M
Boys,67.13,6,Jarrod Mariano,Carrollton Ranchview,67.13,124.74,83.91,154.22,362.87,Single-ply,SBD,M
Boys,67.13,7,Victor Piniero,Carrollton Creekview,64.41,111.13,70.31,129.27,310.71,Single-ply,SBD,M
Boys,67.13,8,Kolby Davis,Lake Dallas,66.22,106.59,77.11,127.01,310.71,Single-ply,SBD,M
Boys,67.13,9,Cain Vasquez,Lake Dallas,62.37,102.06,43.09,122.47,267.62,Single-ply,SBD,M
Boys,74.84,1,Jaylon Norman,Carrollton Ranchview,72.12,167.83,108.86,208.65,485.34,Single-ply,SBD,M
Boys,74.84,2,Jacob Gomez,Carrollton Turner,68.95,158.76,90.72,190.51,439.98,Single-ply,SBD,M
Boys,74.84,3,Brian Griffin,Lake Dallas,72.57,151.95,92.99,181.44,426.38,Single-ply,SBD,M
Boys,74.84,4,Guliermo Saldana,Carrollton Turner,74.62,156.49,97.52,170.1,424.11,Single-ply,SBD,M
Boys,74.84,5,Isaac Pierce,Carrollton Creekview,72.35,131.54,92.99,149.69,374.21,Single-ply,SBD,M
Boys,74.84,6,Jagger McCarty,Lake Dallas,74.16,131.54,74.84,165.56,371.95,Single-ply,SBD,M
Boys,74.84,7,Garren Schantz,Lake Dallas,74.84,129.27,86.18,149.69,365.14,Single-ply,SBD,M
Boys,74.84,8,Sam Shoukri,Carrollton Ranchview,70.31,124.74,79.38,140.61,344.73,Single-ply,SBD,M
Boys,82.1,1,Davian Carter,Carrollton Ranchview,75.98,204.12,120.2,206.38,530.7,Single-ply,SBD,M
Boys,82.1,2,Kalon Mitchell,Carrollton Ranchview,75.98,185.97,106.59,208.65,501.22,Single-ply,SBD,M
Boys,82.1,3,Robert Anderson,Lake Dallas,80.06,154.22,108.86,213.19,476.27,Single-ply,SBD,M
Boys,82.1,4,Uriel Cadena,Carrollton Turner,80.74,172.37,113.4,172.37,458.13,Single-ply,SBD,M
Boys,82.1,5,Brutus Walters,Carrollton Turner,77.34,140.61,102.06,161.03,403.7,Single-ply,SBD,M
Boys,82.1,6,Chris Cabrera,Carrollton Creekview,79.38,145.15,97.52,145.15,387.82,Single-ply,SBD,M
Boys,82.1,7,Ken Francis,Carrollton Turner,79.15,102.06,83.91,158.76,344.73,Single-ply,SBD,M
Boys,82.1,8,Cesar Estrada,Carrollton Turner,80.97,124.74,72.57,133.81,331.12,Single-ply,SBD,M
Boys,82.1,9,Matthew Garcia,Carrollton Ranchview,78.24,165.56,70.31,129.27,365.14,Single-ply,SBD,M
Boys,82.1,10,Arley Thomas,Carrollton Creekview,75.75,90.72,63.5,117.93,272.16,Single-ply,SBD,M
Boys,82.1,11,Jose Solis,Carrollton Creekview,77.11,83.91,63.5,115.67,263.08,Single-ply,SBD,M
Boys,89.81,1,Jordan Simpson #1,Carrollton Creekview,88.22,226.8,133.81,226.8,587.4,Single-ply,SBD,M
Boys,89.81,2,Mauricio Rojas,Carrollton Turner,89.81,192.78,106.59,197.31,496.68,Single-ply,SBD,M
Boys,89.81,3,Layton Lewis,Carrollton Creekview,86.18,170.1,102.06,197.31,469.47,Single-ply,SBD,M
Boys,89.81,4,Devante Traylor,Lake Dallas,84.82,158.76,90.72,181.44,430.91,Single-ply,SBD,M
Boys,89.81,5,Juan Aguilar #3,Lake Dallas,86.41,142.88,115.67,151.95,410.5,Single-ply,SBD,M
Boys,89.81,6,Orlando Garcia,Carrollton Creekview,88.9,138.35,88.45,161.03,387.82,Single-ply,SBD,M
Boys,89.81,7,Andres Renteria,Carrollton Creekview,87.54,129.27,79.38,156.49,365.14,Single-ply,SBD,M
Boys,89.81,8,Jayson Ginn,Carrollton Ranchview,87.77,136.08,79.38,142.88,358.34,Single-ply,SBD,M
Boys,89.81,9,Issa Diop,Carrollton Creekview,86.64,63.5,52.16,81.65,197.31,Single-ply,SBD,M
Boys,99.79,1,David Wilson #7,Carrollton Turner,98.2,185.97,133.81,219.99,539.77,Single-ply,SBD,M
Boys,99.79,2,Jacob Biggerstaff,Lake Dallas,95.93,170.1,120.2,197.31,487.61,Single-ply,SBD,M
Boys,99.79,3,Bryan Chavez-Hernandez,Carrollton Turner,96.16,158.76,106.59,197.31,462.66,Single-ply,SBD,M
Boys,99.79,4,Cash Latta,Carrollton Creekview,93.21,163.29,104.33,165.56,433.18,Single-ply,SBD,M
Boys,99.79,5,Renan Olivera,Carrollton Ranchview,95.03,145.15,86.18,181.44,412.77,Single-ply,SBD,M
Boys,99.79,6,Chris Rosas,Carrollton Turner,99.34,136.08,90.72,163.29,390.09,Single-ply,SBD,M
Boys,99.79,7,Alexis Arbaiza,Carrollton Turner,91.4,120.2,72.57,124.74,317.51,Single-ply,SBD,M
Boys,99.79,8,Alejandro Garcia,Carrollton Turner,94.35,99.79,63.5,138.35,301.64,Single-ply,SBD,M
Boys,99.79,DQ,Damion Hyde,Lake Dallas,91.4,147.42,111.13,,,Single-ply,SBD,M
Boys,99.79,DQ,Tristen Bennett,Carrollton Ranchview,99.34,,113.4,,,Single-ply,SBD,M
Boys,99.79,DQ,Cal Rakovan,Carrollton Creekview,94.8,,102.06,,,Single-ply,SBD,M
Boys,109.77,1,Mason Parker,Carrollton Creekview,106.82,183.7,104.33,195.04,483.08,Single-ply,SBD,M
Boys,109.77,2,Taylor Wilson,Carrollton Turner,100.7,165.56,104.33,199.58,469.47,Single-ply,SBD,M
Boys,109.77,3,Ky'Lon Counts,Carrollton Ranchview,108.41,158.76,115.67,181.44,455.86,Single-ply,SBD,M
Boys,109.77,4,Blake Burkhead,Carrollton Creekview,101.83,136.08,92.99,165.56,394.63,Single-ply,SBD,M
Boys,109.77,5,Dominick Weston,Lake Dallas,107.05,145.15,92.99,154.22,392.36,Single-ply,SBD,M
Boys,124.74,1,Enrique Sanchez,Carrollton Turner,116.57,161.03,111.13,188.24,460.4,Single-ply,SBD,M
Boys,124.74,2,Cameron Officer,Carrollton Creekview,110.45,149.69,83.91,174.63,408.23,Single-ply,SBD,M
Boys,124.74,3,Even Lea,Lake Dallas,110.9,154.22,77.11,170.1,401.43,Single-ply,SBD,M
Boys,124.74,4,Matt Kittridge,Carrollton Creekview,122.24,156.49,92.99,147.42,396.89,Single-ply,SBD,M
Boys,124.74,5,Zachary Baetz,Lake Dallas,124.06,149.69,86.18,161.03,396.89,Single-ply,SBD,M
Boys,124.74+,1,Seth Miller,Carrollton Creekview,144.24,260.82,133.81,204.12,598.74,Single-ply,SBD,M
Boys,124.74+,2,CJ Mendoza #2,Carrollton Ranchview,131.77,210.92,122.47,231.33,564.72,Single-ply,SBD,M
Boys,124.74+,3,Manny Flores,Carrollton Turner,132.9,204.12,122.47,233.6,560.19,Single-ply,SBD,M
Boys,124.74+,4,Francisco Quintero,Carrollton Creekview,128.14,188.24,115.67,188.24,492.15,Single-ply,SBD,M
Boys,124.74+,5,Austin Livingston,Lake Dallas,166.7,176.9,102.06,183.7,462.66,Single-ply,SBD,M
Boys,124.74+,6,Max Hahn,Carrollton Ranchview,125.65,165.56,86.18,195.04,446.79,Single-ply,SBD,M
Boys,124.74+,7,Jesse Salazar,Carrollton Turner,129.95,142.88,83.91,154.22,381.02,Single-ply,SBD,M
