Name,Sex,BirthDate,BodyweightKg,Age,Division,WeightClassKg,Squat1Kg,Squat2Kg,Squat3Kg,Best3SquatKg,Squat4Kg,Bench1Kg,Bench2Kg,Bench3Kg,Best3BenchKg,Bench4Kg,Deadlift1Kg,Deadlift2Kg,Deadlift3Kg,Best3DeadliftKg,Deadlift4Kg,TotalKg,Event,Equipment,Place
Natalia Rojas,F,1996-06-30,44.6,24,Open,48,60,70,80,80,,25,30,-35,30,,60,70,80,80,,190,SBD,Wraps,2
Carolina González De León,F,1985-05-08,47.75,35,Open,48,130,137.5,142.5,142.5,,57.5,60,-62.6,60,,125,135,142.5,142.5,,345,SBD,Wraps,1
Carina Villanueva,F,1982-06-16,51.4,38,Open,52,90,100,115,115,,42.5,47.5,50,50,,110,125,-127.5,125,,290,SBD,Wraps,3
Ayelen Agustina Noguera,F,1991-12-17,51.4,29,Open,52,100,110,120,120,,47.5,55,60,60,,110,120,130,130,,310,SBD,Wraps,2
Agustina Lulich,F,1997-05-06,50.8,23,Open,52,115,120,-125,120,,52.5,55,57.5,57.5,60,115,125,132.5,132.5,140,310,SBD,Wraps,1
Agustina Lulich,F,1997-05-06,50.8,23,Jun,52,115,120,-125,120,,52.5,55,57.5,57.5,60,115,125,132.5,132.5,140,310,SBD,Wraps,1
Eliana Ocampo,F,1986-10-13,55.75,34,Open,56,120,130,-145,130,,55,65,72.5,72.5,,120,135,150,150,,352.5,SBD,Wraps,3
Mariana Miguez,F,1983-08-29,54.5,37,Open,56,-145,145,-150,145,,70,75,-77.5,75,,150,155,160,160,,380,SBD,Wraps,1
Solana Chasampi,F,1998-02-28,55.35,23,Open,56,120,130,140,140,,57.5,62.5,-67.5,62.5,,150,160,170,170,-175,372.5,SBD,Wraps,2
Solana Chasampi,F,1998-02-28,55.35,23,Jun,56,120,130,140,140,,57.5,62.5,-67.5,62.5,,150,160,170,170,-175,372.5,SBD,Wraps,1
Solange A. Viñas,F,1993-02-22,52,28,Open,52,72.5,-80,-82.5,72.5,,35,40,-42.5,40,,70,77.5,80,80,,192.5,SBD,Wraps,4
Belén Baeza,F,1995-05-24,54.5,25,Open,56,110,122.5,130,130,,50,-55,-55,50,,105,120,-130,120,,300,SBD,Wraps,4
Adriana Elizabeth Arce,F,1995-02-05,56.95,26,Open,60,120,130,-140,130,,55,60,65,65,,120,130,135,135,,330,SBD,Wraps,1
Ana Castro,F,1994-01-20,63.35,27,Open,67.5,-115,120,130,130,,70,-75,-80.5,70,,120,132.5,140,140,,340,SBD,Wraps,3
Vanesa Ayala,F,1995-02-20,61.95,26,Open,67.5,-145,150,-160,150,,50,55,60,60,,130,135,140,140,,350,SBD,Wraps,1
Magali Melania Santi,F,1987-08-14,63.5,33,Open,67.5,120,130,-135,130,,50,57.5,62.5,62.5,,130,140,150,150,,342.5,SBD,Wraps,2
Maria Graciela Bernal,F,1990-10-29,73.85,30,Open,75,100,110,-120,110,,45,55,-60,55,,110,120,130,130,,295,SBD,Wraps,2
Sabrina D'Angelo,F,1988-05-09,70.25,32,Open,75,100,110,120,120,,40,45,50,50,,-110,-110,110,110,,280,SBD,Wraps,3
Paula Candela Firpo,F,1996-04-11,72.9,24,Open,75,140,150,160,160,,52.5,57.5,-60,57.5,,130,140,150,150,,367.5,SBD,Wraps,1
Aixa Tebaldi,F,1993-10-28,76.4,27,Open,82.5,150,160,170,170,,72.5,77.5,80,80,,150,155,-157.5,155,,405,SBD,Wraps,2
Florencia Sande,F,1990-01-03,75.75,31,Open,82.5,110,115,-120,115,,52.5,55,57.5,57.5,,110,115,117.5,117.5,,290,SBD,Wraps,5
Paula Stancati,F,1998-09-29,75.85,22,Open,82.5,130,-142.5,-145,130,,55,62.5,70,70,,130,137.5,-140,137.5,,337.5,SBD,Wraps,4
Paula Stancati,F,1998-09-29,75.85,22,Jun,82.5,130,-142.5,-145,130,,55,62.5,70,70,,130,137.5,-140,137.5,,337.5,SBD,Wraps,1
Lucila Rabassa,F,1986-12-05,77.5,34,Open,82.5,-180,-190,190,190,,90,100,-110,100,,160,-170,170,170,,460,SBD,Wraps,1
Vanesa Leones,F,1979-04-24,82.2,41,Open,82.5,147.5,152.5,157.5,157.5,,70,75,80,80,,147.5,150,155,155,,392.5,SBD,Wraps,3
Nicolas Lanfranchi,M,2002-07-31,53.75,18,Open,56,75,85,95,95,,45,-55,,45,,80,100,110,110,,250,SBD,Wraps,2
Manuel Sanchez,M,1998-11-03,55.6,22,Open,56,80,92.5,-100.5,92.5,,50,55,60.5,60.5,62.5,100,120,130.5,130.5,132.5,283.5,SBD,Wraps,1
Vanesa Leones,F,1979-04-24,82.2,41,M 40-49,82.5,147.5,152.5,157.5,157.5,,70,75,80,80,,147.5,150,155,155,,392.5,SBD,Wraps,1
Nicolas Lanfranchi,M,2002-07-31,53.75,18,Tn 18-19,56,75,85,95,95,,45,-55,,45,,80,100,110,110,,250,SBD,Wraps,1
Manuel Sanchez,M,1998-11-03,55.6,22,Jun,56,80,92.5,-100.5,92.5,,50,55,60.5,60.5,62.5,100,120,130.5,130.5,132.5,283.5,SBD,Wraps,1
Ernesto Llul,M,1993-11-04,58.85,27,Open,60,132.5,-142.5,142.5,142.5,,80,82.5,-85,82.5,,135,150,160,160,-170,385,SBD,Wraps,1
Matias Caponetto,M,1998-08-12,65.1,22,Open,67.5,-100,105,115,115,,80,85,87.5,87.5,,125,140,150,150,,352.5,SBD,Wraps,4
Ulises Casco,M,1998-01-22,66.3,23,Open,67.5,140,150,160,160,,105,110,-115,110,,140,150,160,160,,430,SBD,Wraps,3
Santiago Martin Piñero,M,2000-08-14,64.8,20,Open,67.5,160,170,-175,170,,75,82.5,87.5,87.5,,-180,180,190,190,,447.5,SBD,Wraps,1
Matias Caponetto,M,1998-08-12,65.1,22,Jun,67.5,-100,105,115,115,,80,85,87.5,87.5,,125,140,150,150,,352.5,SBD,Wraps,3
Ulises Casco,M,1998-01-22,66.3,23,Jun,67.5,140,150,160,160,,105,110,-115,110,,140,150,160,160,,430,SBD,Wraps,2
Santiago Martin Piñero,M,2000-08-14,64.8,20,Jun,67.5,160,170,-175,170,,75,82.5,87.5,87.5,,-180,180,190,190,,447.5,SBD,Wraps,1
Pablo Gomez,M,1989-07-04,65.4,31,Open,67.5,130,140,160,160,,80,90,95,95,,180,190,-200,190,,445,SBD,Wraps,2
Leonardo Moreno,M,1988-07-31,71.9,32,Open,75,215,-230,,215,,100,,,100,,65,,,65,,380,SBD,Wraps,9
Sergio Gomez Goldsimch,M,2005-07-07,73.65,15,Open,75,100,112.5,122.5,122.5,,67.5,72.5,75,75,,100,112.5,125,125,,322.5,SBD,Wraps,10
Sergio Gomez Goldsimch,M,2005-07-07,73.65,15,Tn 13-15,75,100,112.5,122.5,122.5,,67.5,72.5,75,75,,100,112.5,125,125,,322.5,SBD,Wraps,2
Renato Balbuena,M,1987-02-24,74.35,34,Open,75,180,-192.5,-192.5,180,,125,-130,-130,125,,-205,-205,205,205,,510,SBD,Wraps,4
Tobias Caltabiano,M,2005-07-11,72.2,15,Open,75,130,142.5,155.5,155.5,-165,70,75,-82.5,75,,160,170,180,180,190,410.5,SBD,Wraps,7
Tobias Caltabiano,M,2005-07-11,72.2,15,Tn 13-15,75,130,142.5,155.5,155.5,-165,70,75,-82.5,75,,160,170,180,180,190,410.5,SBD,Wraps,1
Jonathan Chiapa,M,1992-03-12,74.25,29,Open,75,160,175,-190,175,,100,-110,110,110,,190,210,-215,210,,495,SBD,Wraps,5
Luciano Escolano,M,1997-01-22,73,24,Open,75,210,220,-230,220,,127.5,132.5,-140,132.5,,225,240,-250,240,,592.5,SBD,Wraps,1
Carlos Zabala,M,1992-07-11,73.35,28,Open,75,-140,155,170,170,,75,-82.5,87.5,87.5,,155,170,180,180,,437.5,SBD,Wraps,6
Matías González,M,1995-12-20,71.8,25,Open,75,-175,-175,175,175,,120,-130,130,130,,185,200,207.5,207.5,,512.5,SBD,Wraps,3
Juanse Fernandez Koller,M,1998-09-24,73.85,22,Open,75,150,160,-170,160,,130,-135,,130,,205,220,225,225,,515,SBD,Wraps,2
Luis A. Bagnoli,M,1974-05-07,74.65,46,Open,75,160,-170,-170,160,,80,90,-100,90,,150,160,-175,160,,410,SBD,Wraps,8
Juan F. Frede,M,2004-04-21,79.4,16,Open,82.5,150,-165,-165,150,,85,-87.5,,85,,145,165,180,180,,415,SBD,Wraps,11
Francisco Lozano,M,2003-04-08,79.75,17,Open,82.5,-170,-170,-170,,,,,,,,,,,,,,SBD,Wraps,DQ
Luca Lantella,M,2001-05-02,77.2,19,Open,82.5,240,252.5,265,265,,110,115,-120,115,,190,200,-205,200,,580,SBD,Wraps,3
Enzo Escobar,M,1997-10-09,79.75,23,Open,82.5,205,-215,-220,205,,95,100,105,105,,200,212.5,-222.5,212.5,,522.5,SBD,Wraps,7
Chien-Hwa Chen,M,1976-09-16,82.35,44,Open,82.5,120,130,-150,130,,115,125,-132.5,125,,190,200,-210,200,,455,SBD,Wraps,10
Juanse Fernandez Koller,M,1998-09-24,73.85,22,Jun,75,150,160,-170,160,,130,-135,,130,,205,220,225,225,,515,SBD,Wraps,1
Luis A. Bagnoli,M,1974-05-07,74.65,46,M 40-49,75,160,-170,-170,160,,80,90,-100,90,,150,160,-175,160,,410,SBD,Wraps,1
Juan F. Frede,M,2004-04-21,79.4,16,Tn 16-17,82.5,150,-165,-165,150,,85,-87.5,,85,,145,165,180,180,,415,SBD,Wraps,1
Francisco Lozano,M,2003-04-08,79.75,17,Tn 16-17,82.5,-170,-170,-170,,,,,,,,,,,,,,SBD,Wraps,DQ
Luca Lantella,M,2001-05-02,77.2,19,Tn 18-19,82.5,240,252.5,265,265,,110,115,-120,115,,190,200,-205,200,,580,SBD,Wraps,1
Enzo Escobar,M,1997-10-09,79.75,23,Jun,82.5,205,-215,-220,205,,95,100,105,105,,200,212.5,-222.5,212.5,,522.5,SBD,Wraps,1
Chien-Hwa Chen,M,1976-09-16,82.35,44,M 40-49,82.5,120,130,-150,130,,115,125,-132.5,125,,190,200,-210,200,,455,SBD,Wraps,2
Damián Gomez,M,1993-09-28,80.5,27,Open,82.5,-220,-220,220,220,,140,150,-155,150,,230,-240,-242,230,,600,SBD,Wraps,2
Pablo Baggio,M,1991-03-05,80.2,30,Open,82.5,190,205,-220,205,,140,150,-157.5,150,,200,215,225,225,,580,SBD,Wraps,4
Matias E. Villalba,M,1983-10-27,82.45,37,Open,82.5,160,170,180,180,,85,90,95,95,,180,190,-200,190,,465,SBD,Wraps,9
Emanuel Cascallar,M,1995-03-02,80.25,26,Open,82.5,190,200,215,215,,115,122.5,130,130,,190,200,207.5,207.5,,552.5,SBD,Wraps,5
Juan Manuel Costello,M,1989-03-17,78.1,32,Open,82.5,-170,-180,180,180,,90,100,,100,,200,215,-220,215,,495,SBD,Wraps,8
Leandro Correa,M,1979-03-02,81.2,42,M 40-49,82.5,190,210,220,220,,120,130,140,140,,220,235,250,250,,610,SBD,Wraps,1
Leandro Correa,M,1979-03-02,81.2,42,Open,82.5,190,210,220,220,,120,130,140,140,,220,235,250,250,,610,SBD,Wraps,1
Oscar Montiel,M,1983-07-31,81,37,Open,82.5,170,185,200,200,,110,120,-130,120,,200,220,-235,220,,540,SBD,Wraps,6
Gabriel A. Martinez Montoya,M,1999-10-13,86.6,21,Open,90,200,210,-220,210,,100,110,120,120,,200,210,220,220,,550,SBD,Wraps,6
Martin Casanova,M,2001-07-17,89.25,19,Open,90,190,202.5,210,210,,100,107.5,110,110,,205,220,225,225,,545,SBD,Wraps,7
Nicolas Giglio,M,1997-05-21,89.95,23,Open,90,190,205,210,210,,135,-147.5,150,150,,240,260,-270,260,,620,SBD,Wraps,2
Marco Percivaldi,M,2001-04-16,83.3,19,Open,90,205,220,230,230,,115,125,130,130,,195,210,-220,210,,570,SBD,Wraps,4
Facundo Nahuel Bruno,M,1997-08-05,87.45,23,Open,90,190,210,220,220,,-110,115,-120,115,,210,230,-240,230,,565,SBD,Wraps,5
Gianfranco Slepetis,M,2001-05-02,89.3,19,Open,90,275,295,310,310,,155,165,170,170,,260,280,-300.5,280,,760,SBD,Wraps,1
Gabriel A. Martinez Montoya,M,1999-10-13,86.6,21,Jun,90,200,210,-220,210,,100,110,120,120,,200,210,220,220,,550,SBD,Wraps,3
Martin Casanova,M,2001-07-17,89.25,19,Tn 18-19,90,190,202.5,210,210,,100,107.5,110,110,,205,220,225,225,,545,SBD,Wraps,3
Nicolas Giglio,M,1997-05-21,89.95,23,Jun,90,190,205,210,210,,135,-147.5,150,150,,240,260,-270,260,,620,SBD,Wraps,1
Marco Percivaldi,M,2001-04-16,83.3,19,Tn 18-19,90,205,220,230,230,,115,125,130,130,,195,210,-220,210,,570,SBD,Wraps,2
Facundo Nahuel Bruno,M,1997-08-05,87.45,23,Jun,90,190,210,220,220,,-110,115,-120,115,,210,230,-240,230,,565,SBD,Wraps,2
Gianfranco Slepetis,M,2001-05-02,89.3,19,Tn 18-19,90,275,295,310,310,,155,165,170,170,,260,280,-300.5,280,,760,SBD,Wraps,1
Gonzalo Taraborelli,M,1992-02-19,87.7,29,Open,90,190,202.5,212.5,212.5,,100,107.5,-112.5,107.5,,200,212.5,-222.5,212.5,,532.5,SBD,Wraps,9
Jeremías Olmedo,M,1995-12-01,87.7,25,Open,90,170,180,190,190,,100,107.5,110,110,,200,210,225,225,,525,SBD,Wraps,11
Nicolas E. Echazarreta,M,1983-12-23,89.5,37,Open,90,170,180,190,190,,107.5,112.5,117.5,117.5,,200,215,-230,215,,522.5,SBD,Wraps,13
Mauricio Mesarra,M,1992-12-08,83.75,28,Open,90,200,212.5,220,220,,115,125,135,135,,200,212.5,225,225,,580,SBD,Wraps,3
Alesandro Cuccaro,M,1990-06-21,87.1,30,Open,90,200,-210,-210,200,,110,120,-130,120,,200,220,-240,220,,540,SBD,Wraps,8
Ricardo Puchi,M,1988-08-09,89.5,32,Open,90,170,185,200,200,,100,115,120,120,,190,205,-220,205,,525,SBD,Wraps,12
Nicolas Mallo,M,1972-11-27,90,48,Open,90,180,192.5,205,205,,105,107.5,,107.5,,200,212.5,220,220,,532.5,SBD,Wraps,10
Facundo Rocha Mendez,M,2002-02-14,96.3,19,Open,100,-185,185,-195,185,,105,-110,112.5,112.5,,200,210,220,220,,517.5,SBD,Wraps,15
Mateo Codesido,M,1998-09-21,97.7,22,Open,100,220,235,-240,235,,130,137.5,145,145,,230,245,260,260,,640,SBD,Wraps,7
Fabricio Fantozzi,M,1998-09-18,97.75,22,Open,100,230,-245,-250,230,,-130,-130,130,130,,235,250,-265,250,,610,SBD,Wraps,11
Lucas Gonzalez,M,2000-04-09,95.9,20,Open,100,240,255,260,260,,120,130,-137.5,130,,-240,-240,240,240,,630,SBD,Wraps,9
Ignacio Davicino,M,1999-08-10,99.7,21,Open,100,145,155,165,165,,-100,110,122.5,122.5,,155,170,-180,170,,457.5,SBD,Wraps,17
Lorenzo Cicareli,M,2000-08-22,98.3,20,Open,100,-230,-240,240,240,,130,137.5,142.5,142.5,,260,-280,-280,260,,642.5,SBD,Wraps,6
Damian Palazzo,M,2002-01-03,103.7,19,Open,110,225,240,250,250,,120,127.5,135,135,,230,240,-250,240,,625,SBD,Wraps,3
Carlos A. Martinez,M,1980-03-01,107.9,41,Open,110,180,190,200,200,,100,107.5,112.5,112.5,,200,210,215,215,,527.5,SBD,Wraps,6
Nicolas Mallo,M,1972-11-27,90,48,M 40-49,90,180,192.5,205,205,,105,107.5,,107.5,,200,212.5,220,220,,532.5,SBD,Wraps,1
Facundo Rocha Mendez,M,2002-02-14,96.3,19,Tn 18-19,100,-185,185,-195,185,,105,-110,112.5,112.5,,200,210,220,220,,517.5,SBD,Wraps,1
Mateo Codesido,M,1998-09-21,97.7,22,Jun,100,220,235,-240,235,,130,137.5,145,145,,230,245,260,260,,640,SBD,Wraps,2
Fabricio Fantozzi,M,1998-09-18,97.75,22,Jun,100,230,-245,-250,230,,-130,-130,130,130,,235,250,-265,250,,610,SBD,Wraps,4
Lucas Gonzalez,M,2000-04-09,95.9,20,Jun,100,240,255,260,260,,120,130,-137.5,130,,-240,-240,240,240,,630,SBD,Wraps,3
Ignacio Davicino,M,1999-08-10,99.7,21,Jun,100,145,155,165,165,,-100,110,122.5,122.5,,155,170,-180,170,,457.5,SBD,Wraps,5
Lorenzo Cicareli,M,2000-08-22,98.3,20,Jun,100,-230,-240,240,240,,130,137.5,142.5,142.5,,260,-280,-280,260,,642.5,SBD,Wraps,1
Damian Palazzo,M,2002-01-03,103.7,19,Tn 18-19,110,225,240,250,250,,120,127.5,135,135,,230,240,-250,240,,625,SBD,Wraps,1
Carlos A. Martinez,M,1980-03-01,107.9,41,M 40-49,110,180,190,200,200,,100,107.5,112.5,112.5,,200,210,215,215,,527.5,SBD,Wraps,1
Leandro Baez,M,1985-11-08,90.9,35,Open,100,-260,260,280,280,,170,177.5,180,180,,230,-240,-240,230,,690,SBD,Wraps,1
Sebastian Alvarez Nichols,M,1990-06-11,96.9,30,Open,100,190,-200,-200,190,,120,-125,130,130,,210,215,220,220,,540,SBD,Wraps,13
Ezequiel del Rio,M,1987-11-21,90.4,33,Open,100,150,160,170,170,,117.5,125,130,130,,160,180,200,200,,500,SBD,Wraps,16
José María Acevedo,M,1984-01-18,97.3,37,Open,100,225,240,250,250,,150,160,165,165,,240,260,-285,260,,675,SBD,Wraps,2
Gustavo Gonzalez #4,M,1993-03-02,94.8,28,Open,100,200,205,215,215,,110,-117.5,-117.5,110,,220,230,240,240,,565,SBD,Wraps,12
Guido Gola,M,1996-11-05,91.6,24,Open,100,205,-220,230,230,,160,170,-180,170,,240,250,260,260,,660,SBD,Wraps,4
Leandro Zanette,M,1989-10-24,91.7,31,Open,100,225,240,250,250,,135,-145,-145,135,,260,280,-290,280,,665,SBD,Wraps,3
Juan Manuel Vallarino,M,1995-04-26,98.55,25,Open,100,205,215,-225,215,,-160,160,-170,160,,250,265,-275,265,,640,SBD,Wraps,8
Alejandro Lezcano,M,1992-01-26,98.2,29,Open,100,220,230,240,240,,120,130,140,140,,220,230,240,240,,620,SBD,Wraps,10
Joel Leguizamon,M,1994-07-24,96.6,26,Open,100,190,200,-210,200,,110,115,120,120,,-200,200,-220,200,,520,SBD,Wraps,14
Martías E. Quintana,M,1988-09-30,99.75,32,Open,100,230,240,250,250,,140,160,170,170,,210,240,-260,240,,660,SBD,Wraps,5
Cristian Javier Barbosa,M,1979-09-15,107.1,41,Open,110,130,,,130,,90,100,,100,,140,150,160,160,,390,SBD,Wraps,7
Cristian Javier Barbosa,M,1979-09-15,107.1,41,M 40-49,110,130,,,130,,90,100,,100,,140,150,160,160,,390,SBD,Wraps,2
Guillermo Harti,M,1996-07-01,102.2,24,Open,110,190,202.5,-215,202.5,,120,130,-140,130,,220,232.5,-245,232.5,,565,SBD,Wraps,4
Emanuel Mansilla,M,1995-05-30,106.2,25,Open,110,200,220,-240,220,,110,120,-125,120,,200,220,-235,220,,560,SBD,Wraps,5
Juan Pages,M,1988-02-18,102,33,Open,110,240,260,272.5,272.5,,150,160,167.5,167.5,,240,260,-280,260,,700,SBD,Wraps,2
Emiliano Barrionuevo,M,1991-12-24,107.7,29,Open,110,270,290,,290,,172.5,182.5,187.5,187.5,,290,310,-315,310,,787.5,SBD,Wraps,1
Jose M Silva Cohelo,M,1984-01-10,121.6,37,Open,125,-145,145,160,160,,70,82.5,-95,82.5,,170,185,200,200,,442.5,SBD,Wraps,3
Lucas Daniel Dmitruk,M,1993-07-11,120.5,27,Open,125,-220,220,235,235,,150,155,-160,155,,260,272.5,-282.5,272.5,,662.5,SBD,Wraps,2
Facundo Giacche,M,1998-01-21,129.9,23,Open,140,160,170,180,180,,130,140,150,150,,170,185,200,200,,530,SBD,Wraps,6
Mario Martinez,M,1979-11-07,129.75,41,Open,140,-240,240,-270,240,,155,-165,-165,155,,250,260,270,270,,665,SBD,Wraps,3
Facundo Giacche,M,1998-01-21,129.9,23,Jun,140,160,170,180,180,,130,140,150,150,,170,185,200,200,,530,SBD,Wraps,2
Mario Martinez,M,1979-11-07,129.75,41,M 40-49,140,-240,240,-270,240,,155,-165,-165,155,,250,260,270,270,,665,SBD,Wraps,1
Alexis Dalessandro,M,1995-05-07,130.4,25,Open,140,280,300,-320,300,,170,177.5,182.5,182.5,,305,-323,-323,305,,787.5,SBD,Wraps,1
Lautaro Jauregui Lorda,M,1990-04-09,120,30,Open,125,-300,300,-320,300,,160,-170,-170,160,,300,315,-322.5,315,,775,SBD,Wraps,1
Adrian Lopez #3,M,1986-08-07,130,34,Open,140,245,265,277.5,277.5,,150,-162.5,-162.5,150,,250,270,-282.5,270,,697.5,SBD,Wraps,2
Nicolás Espinosa,M,1989-05-03,137.1,31,Open,140,200,210,220,220,,100,110,120,120,,190,200,210,210,,550,SBD,Wraps,5
Sosa Alejandro,M,1998-07-21,133.5,22,Open,140,-180,180,210,210,,110,-120,,110,,230,240,250,250,,570,SBD,Wraps,4
Soledad Gambarte,F,1997-01-15,56,,Open,56,,,,,,50,55,57.5,57.5,,,,,,,57.5,B,Raw,1
Lucila Rabassa,F,1986-12-05,82,,Open,82.5,,,,,,120,130,,130,,,,,,,130,B,Multi-ply,1
Sosa Alejandro,M,1998-07-21,133.5,22,Jun,140,-180,180,210,210,,110,-120,,110,,230,240,250,250,,570,SBD,Wraps,1
Mauro Lejona,M,1982-03-12,79.6,39,Open,82.5,,,,,,140,150,155,155,,,,,,,155,B,Raw,1
Franco Pinto,M,1996-03-04,79.5,25,Open,82.5,,,,,,125,140,-150,140,,,,,,,140,B,Raw,2
Nicolas Godoy,M,1978-01-25,89.85,43,Open,90,,,,,,130,-137.5,-137.5,130,,,,,,,130,B,Raw,1
Pablo Aurellio,M,1978-12-22,97.85,42,Open,100,,,,,,175,185,-190,185,,,,,,,185,B,Raw,2
Marcos Azcurra,M,1978-11-16,96.8,42,Open,100,,,,,,175,185,190,190,192.5,,,,,,190,B,Raw,1
Sebastian Machado,M,1978-08-20,110,42,Open,110,,,,,,165,175,-180,175,,,,,,,175,B,Raw,1
Nicolas Godoy,M,1978-01-25,89.85,43,M 40-49,90,,,,,,130,-137.5,-137.5,130,,,,,,,130,B,Raw,1
Pablo Aurellio,M,1978-12-22,97.85,42,M 40-49,100,,,,,,175,185,-190,185,,,,,,,185,B,Raw,2
Marcos Azcurra,M,1978-11-16,96.8,42,M 40-49,100,,,,,,175,185,190,190,192.5,,,,,,190,B,Raw,1
Sebastian Machado,M,1978-08-20,110,42,M 40-49,110,,,,,,165,175,-180,175,,,,,,,175,B,Raw,1
Víctor Giles,M,1981-08-07,109.9,39,Open,110,,,,,,220,-240,,220,,,,,,,220,B,Multi-ply,1
Erik Anzalo,M,1990-07-18,122.5,30,Open,125,,,,,,195,205,212.5,212.5,,,,,,,212.5,B,Raw,1
Gabriel Lopez #1,M,1977-03-06,121.3,44,Open,125,,,,,,100,,,100,,,,,,,100,B,Raw,2
Yanina Delvalle,F,1978-08-29,52.5,42,Open,56,,,,,,45,50,52.5,52.5,55,90,100,105,105,,157.5,BD,Raw,1
Juan Pedro Galeano,M,2001-10-31,71,19,Open,75,,,,,,65,75,80,80,,130,145,160,160,,240,BD,Raw,2
Gabriel Lopez #1,M,1977-03-06,121.3,44,M 40-49,125,,,,,,100,,,100,,,,,,,100,B,Raw,1
Yanina Delvalle,F,1978-08-29,52.5,42,M 40-49,56,,,,,,45,50,52.5,52.5,55,90,100,105,105,,157.5,BD,Raw,1
Juan Pedro Galeano,M,2001-10-31,71,19,Tn 18-19,75,,,,,,65,75,80,80,,130,145,160,160,,240,BD,Raw,1
Pablo Raccanelo,M,1986-02-15,79.75,35,Open,82.5,,,,,,110,122.5,-130,122.5,,165,177.5,190,190,,312.5,BD,Raw,1
Marcos Di Santo,M,1992-08-02,86.2,28,Open,90,,,,,,145,152.5,-157.5,152.5,,205,-215,-215,205,,357.5,BD,Raw,1
Martin Marquez,M,1998-11-06,107.55,22,Open,110,,,,,,120,130,137.5,137.5,,170,182.5,-215,182.5,,320,BD,Raw,2
Martin Marquez,M,1998-11-06,107.55,22,Jun,110,,,,,,120,130,137.5,137.5,,170,182.5,-215,182.5,,320,BD,Raw,1
Emiliano Barrionuevo,M,1991-12-24,107.7,29,Open,110,,,,,,172.5,182.5,187.5,187.5,,290,310,-315,310,,497.5,BD,Raw,1
Pablo Spagnuolo,M,1995-10-25,72.85,25,Open,75,,,,,,125,140,-145,140,,200,225,-235,225,,365,BD,Raw,1
Nicolas Giglio,M,1997-05-21,91.3,23,Open,100,,,,,,,,,,,230,250,-270,250,,250,D,Raw,1
Nicolas Giglio,M,1997-05-21,91.3,23,Jun,100,,,,,,,,,,,230,250,-270,250,,250,D,Raw,1
Damian Dominicheli,M,1987-02-13,77.9,34,Open,82.5,,,,,,,,,,,140,150,165,165,,165,D,Raw,1
