Division,WeightClassKg,Place,Name,Team,BodyweightKg,Best3SquatKg,Best3BenchKg,Best3DeadliftKg,TotalKg,Equipment,Event,Sex,BirthDate
Girls,44.23,1,Brylee Ross,Abilene Wylie,41.73,81.65,36.29,95.25,213.19,Unlimited,SBD,F,
Girls,44.23,2,Arabella Campo,Abilene,43.73,77.11,36.29,83.91,197.31,Unlimited,SBD,F,
Girls,44.23,3,Sadie Vize,Merkel,44,61.23,36.29,83.91,181.44,Unlimited,SBD,F,
Girls,47.85,1,Citlaly Dehoyos,Abilene,44.91,74.84,34.02,68.04,176.9,Unlimited,SBD,F,
Girls,47.85,2,Britten Chastang,Hawley,45.09,56.7,43.09,77.11,176.9,Unlimited,SBD,F,
Girls,47.85,3,Kassidy Spinks,Clyde,46.81,65.77,36.29,72.57,174.63,Unlimited,SBD,F,
Girls,47.85,DQ,Tina Moreno,Abilene,45,,,,,Unlimited,SBD,F,
Girls,51.94,1,Rachel Rice,Abilene Wylie,51.71,102.06,45.36,113.4,260.82,Unlimited,SBD,F,
Girls,51.94,2,Mage Levia,Merkel,50.08,90.72,47.63,95.25,233.6,Unlimited,SBD,F,
Girls,51.94,3,Rayan Castillo,Abilene,49.44,77.11,36.29,77.11,190.51,Unlimited,SBD,F,
Girls,51.94,4,Victoria Reyes #2,Midland,48.81,72.57,24.95,68.04,165.56,Unlimited,SBD,F,
Girls,56.02,1,Izzy Durbin,Hawley,55.79,136.08,74.84,145.15,356.07,Unlimited,SBD,F,
Girls,56.02,2,Avery Chacon,Merkel,54.88,111.13,61.23,136.08,308.44,Unlimited,SBD,F,
Girls,56.02,3,Sabre Perez,Merkel,54.43,90.72,40.82,113.4,244.94,Unlimited,SBD,F,
Girls,56.02,4,Sienna Hernandez,Abilene Cooper,53.21,90.72,49.9,86.18,226.8,Unlimited,SBD,F,
Girls,56.02,5,Helena Bridge,Abilene Cooper,54.43,77.11,40.82,99.79,217.72,Unlimited,SBD,F,
Girls,56.02,6,Deaija Collins,Abilene,52.53,72.57,40.82,90.72,204.12,Unlimited,SBD,F,
Girls,60.1,1,Mikah Grisham,Hawley,60.06,167.83,99.79,136.08,403.7,Unlimited,SBD,F,
Girls,60.1,2,Renee Aguilar,Hawley,59.24,129.27,61.23,124.74,315.25,Unlimited,SBD,F,
Girls,60.1,3,Madison Zamora,Midland,56.88,106.59,54.43,97.52,258.55,Unlimited,SBD,F,
Girls,60.1,4,Meredith Clancy,Abilene Cooper,59.42,88.45,54.43,106.59,249.48,Unlimited,SBD,F,
Girls,60.1,5,Grace Stoker,Hawley,59.42,90.72,61.23,90.72,242.67,Unlimited,SBD,F,
Girls,60.1,6,Autumn Hammond,Merkel,57.61,95.25,49.9,83.91,229.06,Unlimited,SBD,F,
Girls,60.1,7,Rylee Brooks,Abilene Wylie,59.24,61.23,43.09,83.91,188.24,Unlimited,SBD,F,
Girls,67.36,1,Kylee Carey,Hawley,64.77,172.37,92.99,140.61,405.97,Unlimited,SBD,F,
Girls,67.36,2,Abbi Siller,Hawley,62.6,122.47,61.23,122.47,306.17,Unlimited,SBD,F,
Girls,67.36,3,Madison Holloway,Clyde,64.68,104.33,74.84,102.06,281.23,Unlimited,SBD,F,
Girls,67.36,4,Mayah Huerta,Abilene,66.68,120.2,47.63,113.4,281.23,Unlimited,SBD,F,
Girls,67.36,5,Mikayla Deller,Midland,63.78,97.52,54.43,124.74,276.69,Unlimited,SBD,F,
Girls,67.36,6,Jaylee Gardner,Merkel,65.14,102.06,56.7,113.4,272.16,Unlimited,SBD,F,
Girls,67.36,7,Jasman Redwine,Abilene,65.95,106.59,47.63,113.4,267.62,Unlimited,SBD,F,
Girls,67.36,8,Ella Munshower,Hawley,60.78,106.59,43.09,106.59,256.28,Unlimited,SBD,F,
Girls,67.36,9,Madeline Rolon,Abilene Cooper,64.41,92.99,47.63,95.25,235.87,Unlimited,SBD,F,
Girls,67.36,10,Emma Martinez,Abilene Cooper,64.95,92.99,38.56,99.79,231.33,Unlimited,SBD,F,
Girls,67.36,DQ,Ariana Trevino,Abilene,62.51,,,,,Unlimited,SBD,F,
Girls,75.07,1,Marissa Moschetto,Abilene Wylie,72.3,124.74,81.65,138.35,344.73,Unlimited,SBD,F,
Girls,75.07,2,Rebecca Shields,Hawley,72.57,140.61,77.11,124.74,342.46,Unlimited,SBD,F,
Girls,75.07,3,Kaitlyn Payne,Clyde,74.03,117.93,40.82,124.74,283.5,Unlimited,SBD,F,
Girls,75.07,4,Samantha Olguin,Abilene,71.49,99.79,52.16,113.4,265.35,Unlimited,SBD,F,
Girls,75.07,5,Chloe Wells,Midland,71.49,97.52,52.16,111.13,260.82,Unlimited,SBD,F,
Girls,75.07,6,Iyanna Summerlin,Abilene Cooper,69.67,83.91,40.82,79.38,204.12,Unlimited,SBD,F,
Girls,75.07,7,Caleigh Edwards,Abilene Wylie,73.03,43.09,54.43,102.06,199.58,Unlimited,SBD,F,
Girls,75.07,8,Sofia Velasquez,Clyde,70.58,70.31,36.29,74.84,181.44,Unlimited,SBD,F,
Girls,82.33,1,Jaclyn Rollins,Hawley,77.29,124.74,83.91,97.52,306.17,Unlimited,SBD,F,
Girls,82.33,2,Ariel Hernandez,Abilene Cooper,76.48,92.99,36.29,90.72,219.99,Unlimited,SBD,F,
Girls,82.33,3,Nakyrah Fluri,Merkel,81.83,68.04,38.56,92.99,199.58,Unlimited,SBD,F,
Girls,82.33,4,Lilyana Martinez,Abilene Cooper,79.56,61.23,40.82,74.84,176.9,Unlimited,SBD,F,
Girls,90.04,1,Izabella Granado,Midland,87.09,115.67,65.77,108.86,290.3,Unlimited,SBD,F,
Girls,90.04,2,Maddie Fry,Abilene Cooper,84.64,113.4,52.16,106.59,272.16,Unlimited,SBD,F,
Girls,90.04,3,Janae Robertson,Abilene Cooper,88.9,113.4,43.09,108.86,265.35,Unlimited,SBD,F,
Girls,90.04,4,Hannah Meader,Abilene,83.82,97.52,52.16,106.59,256.28,Unlimited,SBD,F,
Girls,90.04,5,Jaybrea Gonzalez,Merkel,87.36,72.57,40.82,83.91,197.31,Unlimited,SBD,F,
Girls,90.04,6,Madi Van Winkle,Abilene Cooper,87.63,68.04,38.56,70.31,176.9,Unlimited,SBD,F,
Girls,100.02,1,Angelica Hernandez,Hawley,93.26,185.97,115.67,158.76,460.4,Unlimited,SBD,F,
Girls,100.02,2,Liberty Gloyd,Hawley,98.97,154.22,97.52,122.47,374.21,Unlimited,SBD,F,
Girls,100.02,3,Blanca Hernandez,Hawley,93.98,149.69,83.91,122.47,356.07,Unlimited,SBD,F,
Girls,100.02,4,Precious Gomez,Abilene,96.98,115.67,54.43,122.47,292.57,Unlimited,SBD,F,
Girls,100.02,5,Neely Smith,Midland,92.8,113.4,58.97,111.13,283.5,Unlimited,SBD,F,
Girls,100.02,6,Jade Pitcher,Clyde,94.98,106.59,49.9,111.13,267.62,Unlimited,SBD,F,
Girls,117.71,1,Ruby Aguilar,Hawley,113.58,199.58,88.45,147.42,435.45,Unlimited,SBD,F,
Girls,117.71,2,Gabriela Morgan,Clyde,104.33,151.95,68.04,142.88,362.87,Unlimited,SBD,F,
Girls,117.71,3,Abigail Holloway,Clyde,112.4,97.52,54.43,102.06,254.01,Unlimited,SBD,F,
Girls,117.71,4,Taylor Van Meter,Abilene,102.87,90.72,58.97,97.52,247.21,Unlimited,SBD,F,
Girls,117.71,5,Chantelle Wahome,Abilene,101.15,68.04,43.09,92.99,204.12,Unlimited,SBD,F,
Girls,117.71+,1,Jamiya Redwine,Abilene,126.1,158.76,68.04,154.22,381.02,Unlimited,SBD,F,
Girls,117.71+,2,Lesley Phillips,Hawley,117.84,154.22,77.11,131.54,362.87,Unlimited,SBD,F,
Girls,117.71+,3,Paizlie Garcia,Abilene,133.36,142.88,56.7,140.61,340.19,Unlimited,SBD,F,
Girls,,NS,Kiriya Gallo,Abilene Wylie,,,,,,Unlimited,SBD,F,
Girls,,NS,Arwen Hazlewood,Abilene Wylie,,,,,,Unlimited,SBD,F,
Girls,,NS,Kaleigh Henderson,Abilene Wylie,,,,,,Unlimited,SBD,F,
Girls,,NS,Taylor King,Abilene Wylie,,,,,,Unlimited,SBD,F,
Girls,,NS,Jazzy Landeros,Abilene Wylie,,,,,,Unlimited,SBD,F,
Girls,,NS,Dericka Vaughn,Abilene Wylie,,,,,,Unlimited,SBD,F,
Girls,,NS,Kerya Weir,Abilene Wylie,,,,,,Unlimited,SBD,F,
