Division,WeightClassKg,Place,Name,Team,BodyweightKg,Best3SquatKg,Best3BenchKg,Best3DeadliftKg,TotalKg,Equipment,Event,Sex,BirthDate
Boys,51.71,1,Robert Garcia,Crystal City,50.8,142.88,86.18,158.76,387.82,Unlimited,SBD,M,
Boys,51.71,2,Joshua Jimenez,Crystal City,50.26,131.54,83.91,142.88,358.34,Unlimited,SBD,M,
Boys,51.71,3,Jesse Segura,Center Point,51.71,151.95,72.57,127.01,351.53,Unlimited,SBD,M,
Boys,51.71,4,Zeke Orosco,Carrizo Springs,51.71,90.72,74.84,127.01,292.57,Unlimited,SBD,M,
Boys,51.71,5,Gabriel Hernandez,La Pryor,51.71,86.18,61.23,104.33,251.74,Unlimited,SBD,M,
Boys,51.71,6,Jakob Mendoza,Del Rio,51.71,83.91,54.43,90.72,229.06,Unlimited,SBD,M,
Boys,51.71,DQ,Marc Ramirez,Pearsall,51.71,,,,,Unlimited,SBD,M,
Boys,55.79,1,Tadeo Talavera,Del Rio,55.79,188.24,108.86,165.56,462.66,Unlimited,SBD,M,
Boys,55.79,2,Joshua Ramirez,Somerset,55.79,183.7,77.11,176.9,437.72,Unlimited,SBD,M,
Boys,55.79,3,Alejandro Briseno,Pearsall,55.79,149.69,83.91,149.69,383.29,Unlimited,SBD,M,
Boys,55.79,4,Tristan Garcia,Uvalde,55.79,138.35,88.45,131.54,358.34,Unlimited,SBD,M,
Boys,55.79,5,Oami Gutierrez,Uvalde,55.79,124.74,72.57,122.47,319.78,Unlimited,SBD,M,
Boys,55.79,DQ,Nathan Evans,Bandera,55.79,,,,,Unlimited,SBD,M,
Boys,59.87,1,Adrian Gutierrez,Crystal City,59.6,206.38,129.27,181.44,517.1,Unlimited,SBD,M,
Boys,59.87,2,Adrian Zavala,Crystal City,59.51,197.31,108.86,199.58,505.76,Unlimited,SBD,M,
Boys,59.87,3,Reymundo Falcon,Carrizo Springs,59.87,149.69,108.86,151.95,410.5,Unlimited,SBD,M,
Boys,59.87,4,Jayden Segura,Center Point,59.87,170.1,104.33,131.54,405.97,Unlimited,SBD,M,
Boys,59.87,5,Justin Rodriguez,Del Rio,59.87,136.08,88.45,136.08,360.61,Unlimited,SBD,M,
Boys,59.87,6,Marcus DeLeon,Center Point,59.87,136.08,65.77,142.88,344.73,Unlimited,SBD,M,
Boys,59.87,7,Logan Sendejo,Uvalde,59.87,124.74,68.04,140.61,333.39,Unlimited,SBD,M,
Boys,59.87,8,Matthew Villegas,Crystal City,59.87,136.08,63.5,124.74,324.32,Unlimited,SBD,M,
Boys,59.87,9,Zachary Goodin,Bandera,56.97,122.47,63.5,127.01,312.98,Unlimited,SBD,M,
Boys,59.87,DQ,Dareon Vasquez,La Pryor,59.87,,,,,Unlimited,SBD,M,
Boys,59.87,DQ,Gage Perez,Uvalde,59.87,,,,,Unlimited,SBD,M,
Boys,59.87,DQ,Anthony Mata,Somerset,58.51,,,,,Unlimited,SBD,M,
Boys,67.13,1,Aaron Sanchez,Crystal City,66.04,226.8,102.06,226.8,555.65,Unlimited,SBD,M,
Boys,67.13,2,Jason Mendoza,Crystal City,67.13,217.72,111.13,215.46,544.31,Unlimited,SBD,M,
Boys,67.13,3,Andre Aguirre,Uvalde,67.13,206.38,115.67,204.12,526.17,Unlimited,SBD,M,
Boys,67.13,4,Frankie Guzman,Del Rio,67.13,181.44,120.2,183.7,485.34,Unlimited,SBD,M,
Boys,67.13,5,Sonny Valladares,Crystal City,64.5,183.7,111.13,165.56,460.4,Unlimited,SBD,M,
Boys,67.13,6,Alejandro Bustamante,Carrizo Springs,67.13,142.88,70.31,129.27,342.46,Unlimited,SBD,M,
Boys,67.13,7,Aiden Hernandez,Leakey,60.96,124.74,56.7,156.49,337.93,Unlimited,SBD,M,
Boys,67.13,8,Gabriel Aguirre,Center Point,60.69,127.01,68.04,133.81,328.85,Unlimited,SBD,M,
Boys,67.13,DQ,Rj Carabello,Center Point,67.13,,,,,Unlimited,SBD,M,
Boys,67.13,DQ,Blake Frye,Somerset,67.13,,,,,Unlimited,SBD,M,
Boys,67.13,DQ,Rocky Aguirre,Carrizo Springs,67.13,,,,,Unlimited,SBD,M,
Boys,67.13,DQ,Michael Titsworth,Carrizo Springs,67.13,,,,,Unlimited,SBD,M,
Boys,67.13,DQ,Nick LaMountain,Del Rio,67.13,122.47,81.65,,,Unlimited,SBD,M,
Boys,74.84,1,Anthony Gallegos,La Pryor,74.84,256.28,183.7,231.33,671.32,Unlimited,SBD,M,
Boys,74.84,2,Mauricio Gallegos,Center Point,74.84,263.08,156.49,217.72,637.3,Unlimited,SBD,M,
Boys,74.84,3,Tristan Coronado,Del Rio,74.84,231.33,124.74,192.78,548.85,Unlimited,SBD,M,
Boys,74.84,4,Casey Vincent,Center Point,74.84,219.99,115.67,185.97,521.63,Unlimited,SBD,M,
Boys,74.84,5,Nico Uballe,La Pryor,68.22,172.37,124.74,172.37,469.47,Unlimited,SBD,M,
Boys,74.84,6,Ian Gest,Carrizo Springs,74.84,172.37,117.93,179.17,469.47,Unlimited,SBD,M,
Boys,74.84,7,Anthony Arellanes,Crystal City,71.67,165.56,92.99,188.24,446.79,Unlimited,SBD,M,
Boys,74.84,8,Martin Rosales,Pearsall,74.84,174.63,99.79,163.29,437.72,Unlimited,SBD,M,
Boys,74.84,9,Tristan Ramos,Rocksprings,74.84,147.42,72.57,174.63,394.63,Unlimited,SBD,M,
Boys,74.84,10,Benjamin Martinez,Center Point,67.59,154.22,65.77,161.03,381.02,Unlimited,SBD,M,
Boys,74.84,11,Angel Estrada,Rocksprings,74.84,147.42,70.31,161.03,378.75,Unlimited,SBD,M,
Boys,74.84,12,Dylan Del Toro Ortiz,Pearsall,74.84,136.08,72.57,140.61,349.27,Unlimited,SBD,M,
Boys,74.84,13,Jacob Hammonds,Leakey,71.21,129.27,70.31,147.42,347,Unlimited,SBD,M,
Boys,74.84,14,Aiden Chisum,Leakey,74.84,117.93,68.04,149.69,335.66,Unlimited,SBD,M,
Boys,74.84,DQ,Jorge Riojas,Pearsall,74.84,,,,,Unlimited,SBD,M,
Boys,74.84,DQ,Justin Burgess,Somerset,74.84,224.53,111.13,,,Unlimited,SBD,M,
Boys,74.84,DQ,Jaiden Maldonado,Crystal City,71.58,231.33,,,,Unlimited,SBD,M,
Boys,82.1,1,Josiah Lugo,Somerset,77.02,317.51,185.97,224.53,728.02,Unlimited,SBD,M,
Boys,82.1,2,Luis Rodriguez,Del Rio,82.1,235.87,149.69,249.48,635.03,Unlimited,SBD,M,
Boys,82.1,3,Eric Sanchez,Crystal City,81.19,226.8,156.49,206.38,589.67,Unlimited,SBD,M,
Boys,82.1,4,Carlos Salazar,Carrizo Springs,82.1,226.8,127.01,226.8,580.6,Unlimited,SBD,M,
Boys,82.1,5,Michael Reyes,Carrizo Springs,82.1,210.92,151.95,215.46,578.33,Unlimited,SBD,M,
Boys,82.1,6,Joseph Luna,Crystal City,78.47,226.8,124.74,210.92,562.45,Unlimited,SBD,M,
Boys,82.1,7,Martin Gonzalez,Del Rio,82.1,183.7,113.4,197.31,494.42,Unlimited,SBD,M,
Boys,82.1,8,Christian Lozano,La Pryor,82.1,174.63,124.74,183.7,483.08,Unlimited,SBD,M,
Boys,82.1,9,Estaban Rangel,Rocksprings,82.1,195.04,92.99,170.1,458.13,Unlimited,SBD,M,
Boys,82.1,10,Jacob Helt,Uvalde,82.1,151.95,97.52,145.15,394.63,Unlimited,SBD,M,
Boys,82.1,11,Nick Villa,La Pryor,75.84,92.99,47.63,115.67,256.28,Unlimited,SBD,M,
Boys,82.1,DQ,Ryan Ramirez,Pearsall,82.1,,,,,Unlimited,SBD,M,
Boys,82.1,DQ,Giovanni Hernandez,Crystal City,81.65,,,,,Unlimited,SBD,M,
Boys,89.81,1,Christian Lopez,La Pryor,89.81,303.91,181.44,274.42,759.77,Unlimited,SBD,M,
Boys,89.81,2,Chuy Vasquez,Uvalde,89.81,260.82,176.9,247.21,684.92,Unlimited,SBD,M,
Boys,89.81,3,Isaac Cervantes,Center Point,88.72,276.69,138.35,258.55,673.58,Unlimited,SBD,M,
Boys,89.81,4,Nathan Mendoza,Crystal City,89.36,247.21,149.69,247.21,644.1,Unlimited,SBD,M,
Boys,89.81,5,Ryan Baron,Uvalde,89.81,231.33,170.1,183.7,585.13,Unlimited,SBD,M,
Boys,89.81,6,Omar Campos,Somerset,89.81,238.14,117.93,213.19,569.26,Unlimited,SBD,M,
Boys,89.81,7,Dylan Medina,Rocksprings,89.81,204.12,113.4,183.7,501.22,Unlimited,SBD,M,
Boys,89.81,8,David Reyes,Rocksprings,89.81,192.78,108.86,197.31,498.95,Unlimited,SBD,M,
Boys,89.81,DQ,Slade Newcomb,Center Point,89.81,,,,,Unlimited,SBD,M,
Boys,89.81,DQ,Ethan Boyd,Bandera,89.81,,,,,Unlimited,SBD,M,
Boys,89.81,DQ,Jayden Juarez,Carrizo Springs,82.74,108.86,72.57,,,Unlimited,SBD,M,
Boys,89.81,DQ,Carlos Perez #14,Crystal City,85.73,176.9,,,,Unlimited,SBD,M,
Boys,89.81,DQ,Rodrigo Tamez,Del Rio,89.81,197.31,,,,Unlimited,SBD,M,
Boys,89.81,DQ,Armando Cervera,Crystal City,87.36,163.29,,,,Unlimited,SBD,M,
Boys,99.79,1,Beau Hernandez,Rocksprings,99.79,274.42,183.7,235.87,694,Unlimited,SBD,M,
Boys,99.79,2,Miguel Silva,Carrizo Springs,99.79,249.48,176.9,244.94,671.32,Unlimited,SBD,M,
Boys,99.79,3,Malakai Lara,Uvalde,94.08,251.74,176.9,231.33,659.98,Unlimited,SBD,M,
Boys,99.79,4,Luis Perez #16,Crystal City,95.16,199.58,154.22,190.51,544.31,Unlimited,SBD,M,
Boys,99.79,5,Jose Serna,Crystal City,90.72,197.31,115.67,215.46,528.44,Unlimited,SBD,M,
Boys,99.79,6,Rodolfo Ortegon,Pearsall,90.72,201.85,117.93,183.7,503.49,Unlimited,SBD,M,
Boys,99.79,7,Noah Palencia,Del Rio,94.26,199.58,117.93,154.22,471.74,Unlimited,SBD,M,
Boys,99.79,8,Wyatt Reed,Center Point,99.79,183.7,102.06,167.83,453.59,Unlimited,SBD,M,
Boys,99.79,9,Sebastian Cervantez,Crystal City,93.89,174.63,92.99,183.7,451.32,Unlimited,SBD,M,
Boys,99.79,10,Robert Alvarado,Crystal City,97.11,170.1,117.93,142.88,430.91,Unlimited,SBD,M,
Boys,99.79,11,Daniel Saucedo,La Pryor,99.79,124.74,74.84,142.88,342.46,Unlimited,SBD,M,
Boys,99.79,12,Cooper Lyon,Leakey,99.79,117.93,70.31,127.01,315.25,Unlimited,SBD,M,
Boys,99.79,13,Jayden Gonzalez,Crystal City,94.8,104.33,83.91,115.67,303.91,Unlimited,SBD,M,
Boys,99.79,14,Kevin Quevedo,Crystal City,92.8,102.06,56.7,106.59,265.35,Unlimited,SBD,M,
Boys,99.79,DQ,Jesse Cordova,Carrizo Springs,99.79,,,,,Unlimited,SBD,M,
Boys,99.79,DQ,Matthew Gutierrez,Carrizo Springs,99.79,,,,,Unlimited,SBD,M,
Boys,99.79,DQ,Adrian Perez,Crystal City,98.88,210.92,129.27,,,Unlimited,SBD,M,
Boys,99.79,DQ,Jordan Trujillo,Carrizo Springs,99.25,185.97,131.54,,,Unlimited,SBD,M,
Boys,109.77,1,George Avalos,Del Rio,109.77,315.25,167.83,269.89,752.96,Unlimited,SBD,M,
Boys,109.77,2,Sal Sanchez,Somerset,100.79,308.44,204.12,226.8,739.36,Unlimited,SBD,M,
Boys,109.77,3,Isaac Carillo,La Pryor,109.77,283.5,167.83,242.67,694,Unlimited,SBD,M,
Boys,109.77,4,Andrew Torres,Carrizo Springs,109.77,278.96,176.9,226.8,682.66,Unlimited,SBD,M,
Boys,109.77,5,Roy Medrano,La Pryor,109.77,260.82,158.76,215.46,635.03,Unlimited,SBD,M,
Boys,109.77,6,Julio Jimenez,Carrizo Springs,109.77,238.14,161.03,233.6,632.76,Unlimited,SBD,M,
Boys,109.77,7,Jd Spurlock,Somerset,109.77,260.82,151.95,192.78,605.55,Unlimited,SBD,M,
Boys,109.77,8,Devin Hernandez,Crystal City,104.33,240.4,154.22,204.12,598.74,Unlimited,SBD,M,
Boys,109.77,9,Manuel Gutierrez,Carrizo Springs,109.77,235.87,161.03,192.78,589.67,Unlimited,SBD,M,
Boys,109.77,10,Jp Peralta,Center Point,99.97,222.26,124.74,192.78,539.77,Unlimited,SBD,M,
Boys,109.77,11,Matthew Mendoza,Crystal City,108.05,188.24,117.93,174.63,480.81,Unlimited,SBD,M,
Boys,109.77,12,Gerardo Perez,La Pryor,109.77,120.2,72.57,131.54,324.32,Unlimited,SBD,M,
Boys,109.77,DQ,Marcos Garcia,Carrizo Springs,109.77,,,,,Unlimited,SBD,M,
Boys,124.74,1,Adolfo Flores,La Pryor,124.74,326.59,229.06,263.08,818.73,Unlimited,SBD,M,
Boys,124.74,2,Aaron Graves,Uvalde,124.74,269.89,204.12,229.06,703.07,Unlimited,SBD,M,
Boys,124.74,3,Jose Torres,Rocksprings,123.2,247.21,156.49,188.24,591.94,Unlimited,SBD,M,
Boys,124.74,4,Keath Taylor,Carrizo Springs,124.74,215.46,158.76,195.04,569.26,Unlimited,SBD,M,
Boys,124.74,5,Jaden Mirelaz,Uvalde,124.74,238.14,113.4,185.97,537.51,Unlimited,SBD,M,
Boys,124.74,6,Caleb Yeschke,Leakey,124.74,204.12,115.67,210.92,530.7,Unlimited,SBD,M,
Boys,124.74,7,Isaac DeHoyes,Del Rio,124.74,206.38,124.74,142.88,474,Unlimited,SBD,M,
Boys,124.74,DQ,Javier Juarez,Rocksprings,123.38,,,,,Unlimited,SBD,M,
Boys,124.74,DQ,Walker Smart,Pearsall,124.74,,,,,Unlimited,SBD,M,
Boys,124.74,DQ,Rey Lopez,Carrizo Springs,124.74,,,,,Unlimited,SBD,M,
Boys,124.74,DQ,Elijah Bonilla-Adame,Crystal City,115.58,,,,,Unlimited,SBD,M,
Boys,139.71,1,Tacori Cook,Somerset,139.71,249.48,183.7,215.46,648.64,Unlimited,SBD,M,
Boys,139.71,2,Abam Barboza,Uvalde,139.71,226.8,167.83,217.72,612.35,Unlimited,SBD,M,
Boys,139.71,3,Fermin Barboza,Uvalde,139.71,233.6,151.95,215.46,601.01,Unlimited,SBD,M,
Boys,139.71,4,Jesus Silva,Carrizo Springs,127.46,204.12,113.4,204.12,521.63,Unlimited,SBD,M,
Boys,139.71,5,Javier Santos,Carrizo Springs,139.71,199.58,92.99,170.1,462.66,Unlimited,SBD,M,
Boys,139.71,6,Aiden Valdez,Somerset,127.01,174.63,104.33,165.56,444.52,Unlimited,SBD,M,
Boys,139.71,DQ,Kaleb Cruz,Carrizo Springs,139.71,,,,,Unlimited,SBD,M,
Boys,139.71,DQ,Jonathan Carreon,Crystal City,131,265.35,,,,Unlimited,SBD,M,
Boys,139.71,DQ,Robert Medina,La Pryor,139.71,,,,,Unlimited,SBD,M,
Boys,139.71+,1,Israel Moncada,Crystal City,141.25,347,215.46,249.48,811.93,Unlimited,SBD,M,
Boys,139.71+,2,Javier Adams,Somerset,142.88,258.55,213.19,272.16,743.89,Unlimited,SBD,M,
Boys,139.71+,3,Dustin Jackson,La Pryor,141.07,319.78,179.17,219.99,718.94,Unlimited,SBD,M,
Boys,139.71+,4,Jakob Perez,Somerset,142.88,272.16,183.7,183.7,639.57,Unlimited,SBD,M,
Boys,139.71+,5,Zanthony Rodriguez,La Pryor,140.61,247.21,190.51,176.9,614.62,Unlimited,SBD,M,
Boys,139.71+,6,Vicente Torres,Rocksprings,142.88,213.19,133.81,231.33,578.33,Unlimited,SBD,M,
Boys,139.71+,7,Jeremiah Trevino,Uvalde,142.88,195.04,106.59,145.15,446.79,Unlimited,SBD,M,
Boys,139.71+,DQ,Jerry Rodriguez,Carrizo Springs,142.88,238.14,145.15,,,Unlimited,SBD,M,
