Division,WeightClassKg,Place,Name,Team,BodyweightKg,Best3SquatKg,Best3BenchKg,Best3DeadliftKg,TotalKg,Equipment,Event,Sex
Girls,44.23,1,Mariah Dominic,Port Arthur Memorial,43.09,65.77,29.48,74.84,170.1,Single-ply,SBD,F
Girls,44.23,DQ,Gabby Gamboa-Vasquez,Bryan Rudder,44.18,65.77,,,,Single-ply,SBD,F
Girls,47.85,1,Pamela Munoz,Shepherd,47.72,92.99,34.02,86.18,213.19,Single-ply,SBD,F
Girls,47.85,2,Kathryn Trana,Conroe Woodlands College Park,47.63,63.5,31.75,97.52,192.78,Single-ply,SBD,F
Girls,47.85,3,Analicia Perez,Alvin,46.27,72.57,31.75,81.65,185.97,Single-ply,SBD,F
Girls,51.94,1,Angelika Martinez,Shepherd,51.62,113.4,58.97,117.93,290.3,Single-ply,SBD,F
Girls,51.94,2,Olivia Ansley,Shepherd,50.8,115.67,61.23,104.33,281.23,Single-ply,SBD,F
Girls,51.94,3,Dani Willis,Port Arthur Memorial,51.44,97.52,49.9,129.27,276.69,Single-ply,SBD,F
Girls,51.94,4,Abby Courvelle,Shepherd,51.8,86.18,49.9,104.33,240.4,Single-ply,SBD,F
Girls,51.94,5,Erin Nelson,Port Arthur Memorial,50.98,83.91,45.36,102.06,231.33,Single-ply,SBD,F
Girls,51.94,6,Erica Martinez,Huntsville,48.9,68.04,29.48,86.18,183.7,Single-ply,SBD,F
Girls,51.94,7,Jessica Daniel,Trinity,47.99,58.97,29.48,86.18,174.63,Single-ply,SBD,F
Girls,51.94,8,Noemi Perez,Huntsville,51.03,58.97,27.22,72.57,158.76,Single-ply,SBD,F
Girls,56.02,1,Alexis Bradford,Shepherd,54.98,145.15,63.5,136.08,344.73,Single-ply,SBD,F
Girls,56.02,2,Alyssa Patterson,Shepherd,55.16,136.08,61.23,136.08,333.39,Single-ply,SBD,F
Girls,56.02,3,Tierra Mouton,Port Arthur Memorial,54.52,92.99,49.9,124.74,267.62,Single-ply,SBD,F
Girls,56.02,4,Magdelena Zavala,Alvin,55.97,99.79,40.82,120.2,260.82,Single-ply,SBD,F
Girls,56.02,5,Chalonna Harris,Port Arthur Memorial,53.07,99.79,34.02,120.2,254.01,Single-ply,SBD,F
Girls,56.02,6,Jabreion Curry,Bryan,53.07,77.11,38.56,99.79,215.46,Single-ply,SBD,F
Girls,56.02,7,Hailey Nelson #2,Willis,54.3,74.84,43.09,95.25,213.19,Single-ply,SBD,F
Girls,60.1,1,Danielle Vasquez,Alvin,58.97,124.74,58.97,129.27,312.98,Single-ply,SBD,F
Girls,60.1,2,Jessica Alaniz,Alvin,58.42,124.74,45.36,131.54,301.64,Single-ply,SBD,F
Girls,60.1,3,Breanne Haesche,Conroe Caney Creek,59.78,113.4,49.9,129.27,292.57,Single-ply,SBD,F
Girls,60.1,4,Jennifer Sanchez,Alvin,60.06,113.4,61.23,106.59,281.23,Single-ply,SBD,F
Girls,60.1,5,Taylor Mize,Shepherd,59.78,102.06,56.7,117.93,276.69,Single-ply,SBD,F
Girls,60.1,6,Jessica Vasquez,Alvin,59.69,111.13,49.9,113.4,274.42,Single-ply,SBD,F
Girls,60.1,7,Asia Brown,Port Arthur Memorial,60.06,106.59,43.09,120.2,269.89,Single-ply,SBD,F
Girls,60.1,8,Abriana Arriaga,Alvin,57.97,108.86,47.63,95.25,251.74,Single-ply,SBD,F
Girls,60.1,9,Shelbie Swinhoe,New Caney Porter,59.87,97.52,45.36,106.59,249.48,Single-ply,SBD,F
Girls,60.1,10,Makenzi Krest,Willis,58.79,92.99,36.29,90.72,219.99,Single-ply,SBD,F
Girls,60.1,11,Jessica Emola,Bryan Rudder,59.87,72.57,31.75,86.18,190.51,Single-ply,SBD,F
Girls,60.1,12,Meghan Erwin,New Waverly,59.96,70.31,38.56,65.77,174.63,Single-ply,SBD,F
Girls,60.1,13,Rosi Garcia,Trinity,56.88,52.16,24.95,83.91,161.03,Single-ply,SBD,F
Girls,60.1,DQ,DaVisha Isaac,Bryan,59.78,104.33,49.9,,,Single-ply,SBD,F
Girls,67.36,1,Skyler Thames,Willis,67.22,149.69,68.04,129.27,347,Single-ply,SBD,F
Girls,67.36,2,Gabby Hernandez,Port Arthur Memorial,64.41,120.2,52.16,140.61,312.98,Single-ply,SBD,F
Girls,67.36,3,Baily Litton,New Caney Porter,65.77,124.74,61.23,122.47,308.44,Single-ply,SBD,F
Girls,67.36,4,Dia Banda,Shepherd,61.23,113.4,56.7,124.74,294.84,Single-ply,SBD,F
Girls,67.36,5,Ashley Villanueva,Alvin,66.86,111.13,52.16,131.54,294.84,Single-ply,SBD,F
Girls,67.36,6,Jillian Lamm,Alvin,63.41,97.52,49.9,111.13,258.55,Single-ply,SBD,F
Girls,67.36,7,McKenna Kolojaco,Conroe Caney Creek,60.51,99.79,52.16,104.33,256.28,Single-ply,SBD,F
Girls,67.36,8,Sarah Shackelford,Conroe Woodlands College Park,64.32,95.25,43.09,115.67,254.01,Single-ply,SBD,F
Girls,67.36,9,Kyndall Hill,Trinity,64.41,88.45,38.56,124.74,251.74,Single-ply,SBD,F
Girls,67.36,10,Krysten Breaux,Alvin,62.32,90.72,47.63,108.86,247.21,Single-ply,SBD,F
Girls,67.36,11,Natalia Gracia,Conroe Woodlands College Park,60.69,88.45,47.63,102.06,238.14,Single-ply,SBD,F
Girls,67.36,12,Jessica Leal,Bryan Rudder,64.41,88.45,40.82,97.52,226.8,Single-ply,SBD,F
Girls,67.36,13,Alexis Wilson,New Waverly,61.33,72.57,34.02,77.11,183.7,Single-ply,SBD,F
Girls,67.36,14,Brionna Crowson,Huntsville,60.87,54.43,36.29,68.04,158.76,Single-ply,SBD,F
Girls,67.36,15,Kim Alvarez,Huntsville,62.78,63.5,22.68,65.77,151.95,Single-ply,SBD,F
Girls,67.36,DQ,Shermaine Greene,Port Arthur Memorial,62.32,,,,,Single-ply,SBD,F
Girls,75.07,1,CaSundra Roberts,Port Arthur Memorial,72.85,117.93,45.36,149.69,312.98,Single-ply,SBD,F
Girls,75.07,2,Kaitlyn Danford,Huntsville,74.93,92.99,58.97,122.47,274.42,Single-ply,SBD,F
Girls,75.07,3,Cami Pennington,Shepherd,70.22,122.47,56.7,86.18,265.35,Single-ply,SBD,F
Girls,75.07,4,Euline Zaragoza,Trinity,67.59,97.52,38.56,115.67,251.74,Single-ply,SBD,F
Girls,75.07,5,Kelli Ramey,Trinity,71.21,88.45,38.56,104.33,231.33,Single-ply,SBD,F
Girls,75.07,6,Delia Valencia,New Caney,69.04,77.11,38.56,74.84,190.51,Single-ply,SBD,F
Girls,75.07,7,Blair Carlile,Willis,70.13,63.5,47.63,72.57,183.7,Single-ply,SBD,F
Girls,82.33,1,Kimberlynn Patzold,New Caney Porter,77.43,154.22,79.38,147.42,381.02,Single-ply,SBD,F
Girls,82.33,2,Marisa Crider,Conroe Caney Creek,81.47,129.27,58.97,145.15,333.39,Single-ply,SBD,F
Girls,82.33,3,Deanna Edwards,New Caney,79.2,138.35,79.38,104.33,322.05,Single-ply,SBD,F
Girls,82.33,4,Ayannah Dailey,Port Arthur Memorial,79.92,127.01,49.9,145.15,322.05,Single-ply,SBD,F
Girls,82.33,5,Darby Hill,Alvin,79.47,113.4,56.7,124.74,294.84,Single-ply,SBD,F
Girls,82.33,6,Karen Hernandez,Huntsville,77.11,58.97,36.29,70.31,165.56,Single-ply,SBD,F
Girls,82.33,DQ,Carolina Escamilla,New Caney,78.47,113.4,58.97,,,Single-ply,SBD,F
Girls,82.33,DQ,Samantha Burch,Conroe Caney Creek,75.57,106.59,58.97,,,Single-ply,SBD,F
Girls,90.04,1,Deanna Fisher,Trinity,86.64,149.69,68.04,145.15,362.87,Single-ply,SBD,F
Girls,90.04,2,Cheyanne Deems,Conroe Woodlands College Park,89.72,131.54,68.04,129.27,328.85,Single-ply,SBD,F
Girls,90.04,3,Sarah Roberts,New Caney,86,90.72,45.36,86.18,222.26,Single-ply,SBD,F
Girls,100.02,1,CeCe Sambrano,Alvin,98.25,190.51,83.91,161.03,435.45,Single-ply,SBD,F
Girls,100.02,2,Tory Rogers,Conroe Caney Creek,91.53,113.4,52.16,83.91,249.48,Single-ply,SBD,F
Girls,100.02,DQ,Kiara Roach,Port Arthur Memorial,91.63,149.69,,,,Single-ply,SBD,F
Girls,100.02,DQ,Sintia Castilla,Trinity,97.79,102.06,43.09,,,Single-ply,SBD,F
Girls,100.02+,1,Melanie McVay,Willis,116.66,124.74,68.04,113.4,306.17,Single-ply,SBD,F
Girls,100.02+,2,Mary Jane Narro,Bryan Rudder,142.25,115.67,54.43,113.4,283.5,Single-ply,SBD,F
Girls,100.02+,DQ,Kaley Gollnisch,Conroe Caney Creek,108.23,174.63,,,,Single-ply,SBD,F
Girls,,NS,Maighon Beck,Shepherd,,,,,,Single-ply,SBD,F
Girls,,NS,Kelsie Steel,Shepherd,,,,,,Single-ply,SBD,F
Girls,,NS,Destiny Howard,Shepherd,,,,,,Single-ply,SBD,F
Girls,,NS,Brittany Welker,Shepherd,,,,,,Single-ply,SBD,F
Girls,,NS,Olivia Jackson,Shepherd,,,,,,Single-ply,SBD,F
Girls,,NS,Andrea Diaz,Trinity,,,,,,Single-ply,SBD,F
Girls,,NS,Mariela Diaz,Trinity,,,,,,Single-ply,SBD,F
Girls,,NS,Cynthia Moya,New Caney Porter,,,,,,Single-ply,SBD,F
Girls,,NS,Jessica Aguirre,Huntsville,,,,,,Single-ply,SBD,F
Girls,,NS,Crystal Manchado,Huntsville,,,,,,Single-ply,SBD,F
Girls,,NS,Laura Garcia #5,Trinity,,,,,,Single-ply,SBD,F
Girls,,NS,Jailyn Edwards,Trinity,,,,,,Single-ply,SBD,F
