Division,WeightClassKg,Place,Name,Team,BodyweightKg,Best3SquatKg,Best3BenchKg,Best3DeadliftKg,TotalKg,Equipment,Event,Sex,BirthDate
Boys,51.71,1,Gabriel Guzman,Mission Sharyland,51.71,197.31,81.65,185.97,464.93,Unlimited,SBD,M,
Boys,51.71,2,Dashel Burrows,Sharyland Pioneer,51.44,185.97,108.86,158.76,453.59,Unlimited,SBD,M,
Boys,51.71,3,Gabriel Ozuna,Edinburg Vela,51.35,188.24,79.38,172.37,439.98,Unlimited,SBD,M,
Boys,51.71,4,Carlos Cantu,McAllen Memorial,49.8,149.69,92.99,156.49,399.16,Unlimited,SBD,M,
Boys,51.71,5,Haziel Guzman,Mission Sharyland,51.07,136.08,81.65,145.15,362.87,Unlimited,SBD,M,
Boys,51.71,6,Marcus Ortiz,Edinburg Vela,51.26,122.47,97.52,122.47,342.46,Unlimited,SBD,M,
Boys,55.79,1,Alexis Rodriguez,PSJA Southwest,55.61,142.88,95.25,145.15,383.29,Unlimited,SBD,M,
Boys,55.79,2,Marcos Castillo,PSJA North,55.61,147.42,74.84,158.76,381.02,Unlimited,SBD,M,
Boys,59.87,1,Rick Reyna,McAllen Memorial,59.51,219.99,106.59,226.8,553.38,Unlimited,SBD,M,
Boys,59.87,2,Robert Rodriguez #10,Sharyland Pioneer,59.87,183.7,113.4,176.9,474,Unlimited,SBD,M,
Boys,59.87,3,Lucien Martinez,Mission Sharyland,58.6,181.44,81.65,172.37,435.45,Unlimited,SBD,M,
Boys,59.87,4,Aaron D Flores,Edinburg Vela,59.06,129.27,108.86,142.88,381.02,Unlimited,SBD,M,
Boys,59.87,5,Jose Saenz,Mission Sharyland,59.87,140.61,81.65,142.88,365.14,Unlimited,SBD,M,
Boys,67.13,1,Diego Mercado,McAllen Rowe,65.23,242.67,156.49,210.92,610.08,Unlimited,SBD,M,
Boys,67.13,2,Aiden Scurlock,McAllen,66.95,244.94,124.74,219.99,589.67,Unlimited,SBD,M,
Boys,67.13,3,Adrian Esparza,Sharyland Pioneer,66.86,190.51,113.4,219.99,523.9,Unlimited,SBD,M,
Boys,67.13,4,Aidan Cantu,Edinburg Vela,66.95,206.38,142.88,174.63,523.9,Unlimited,SBD,M,
Boys,67.13,5,Francisco Lopez,McAllen Rowe,66.95,176.9,113.4,215.46,505.76,Unlimited,SBD,M,
Boys,67.13,6,Sebastian Islas,McAllen Rowe,63.78,185.97,106.59,197.31,489.88,Unlimited,SBD,M,
Boys,67.13,7,Joshua Tanguma,Mission Sharyland,66.68,190.51,111.13,167.83,469.47,Unlimited,SBD,M,
Boys,67.13,8,Matthew Esparza,Sharyland Pioneer,65.32,172.37,92.99,170.1,435.45,Unlimited,SBD,M,
Boys,67.13,9,Jose Reyes,Mission Sharyland,66.5,172.37,102.06,142.88,417.3,Unlimited,SBD,M,
Boys,67.13,10,Custodio Christopher,Pharr Valley View,66.77,165.56,102.06,149.69,417.3,Unlimited,SBD,M,
Boys,67.13,11,Homer Camacho,PSJA Memorial,61.87,147.42,95.25,145.15,387.82,Unlimited,SBD,M,
Boys,67.13,12,Edrik Rodriguez,Mission Sharyland,62.51,140.61,88.45,151.95,381.02,Unlimited,SBD,M,
Boys,67.13,DQ,Christian Little,McAllen Memorial,67.04,,,,,Unlimited,SBD,M,
Boys,74.84,1,Anthony Little,McAllen Memorial,73.66,240.4,151.95,251.74,644.1,Unlimited,SBD,M,
Boys,74.84,2,Eduardo Cervantes,McAllen,73.39,238.14,151.95,240.4,630.49,Unlimited,SBD,M,
Boys,74.84,3,Joseph Munoz,McAllen Rowe,74.57,208.65,145.15,224.53,578.33,Unlimited,SBD,M,
Boys,74.84,4,Adan Ramirez,McAllen Rowe,71.03,208.65,138.35,224.53,571.53,Unlimited,SBD,M,
Boys,74.84,5,Eric Adrian,McAllen Memorial,72.48,238.14,127.01,206.38,571.53,Unlimited,SBD,M,
Boys,74.84,6,Evander Guana,Edinburg Vela,73.3,183.7,154.22,229.06,566.99,Unlimited,SBD,M,
Boys,74.84,7,Cristoff Tollett,Pharr Valley View,73.21,201.85,136.08,204.12,542.04,Unlimited,SBD,M,
Boys,74.84,8,Adam Rocha,Sharyland Pioneer,72.57,208.65,113.4,210.92,532.97,Unlimited,SBD,M,
Boys,74.84,9,Joseph Padron,Mission Sharyland,70.94,201.85,127.01,183.7,512.56,Unlimited,SBD,M,
Boys,74.84,10,Joel Sanchez,PSJA Southwest,71.58,188.24,122.47,172.37,483.08,Unlimited,SBD,M,
Boys,74.84,11,Rene Rodriguez,Mission Sharyland,69.04,170.1,102.06,170.1,442.25,Unlimited,SBD,M,
Boys,74.84,12,Nicolas Martinez,PSJA North,69.94,156.49,113.4,149.69,419.57,Unlimited,SBD,M,
Boys,74.84,13,Michael Pena,Sharyland Pioneer,72.67,156.49,90.72,147.42,394.63,Unlimited,SBD,M,
Boys,74.84,14,Osiel Rivas,PSJA Southwest,71.85,131.54,72.57,147.42,351.53,Unlimited,SBD,M,
Boys,74.84,DQ,Isreal Fiscal,Pharr Valley View,72.12,,,,,Unlimited,SBD,M,
Boys,74.84,DQ,Isaac Santoyo,McAllen,74.21,222.26,,,,Unlimited,SBD,M,
Boys,74.84,DQ,David Solis,Mission Sharyland,72.67,131.54,,,,Unlimited,SBD,M,
Boys,82.1,1,Jacob Martinez,PSJA North,77.29,283.5,138.35,244.94,666.78,Unlimited,SBD,M,
Boys,82.1,2,Yashid Cobos,Edinburg Vela,77.93,251.74,167.83,231.33,650.91,Unlimited,SBD,M,
Boys,82.1,3,Lupe Garcia,PSJA Southwest,80.92,249.48,154.22,247.21,650.91,Unlimited,SBD,M,
Boys,82.1,4,Jose Elias,McAllen,78.74,208.65,156.49,201.85,566.99,Unlimited,SBD,M,
Boys,82.1,5,Adan De La Cruz,McAllen Rowe,76.2,208.65,156.49,192.78,557.92,Unlimited,SBD,M,
Boys,82.1,6,Alek Anzaldua,McAllen Rowe,80.47,213.19,133.81,190.51,537.51,Unlimited,SBD,M,
Boys,82.1,7,Mason Cantu,McAllen,77.2,183.7,124.74,215.46,523.9,Unlimited,SBD,M,
Boys,82.1,8,Mario Perez,Mission Sharyland,79.2,174.63,108.86,208.65,492.15,Unlimited,SBD,M,
Boys,82.1,9,Emiliano Romero,PSJA Southwest,78.38,188.24,108.86,185.97,483.08,Unlimited,SBD,M,
Boys,82.1,10,Jorge Aradillas,PSJA Southwest,80.65,183.7,95.25,165.56,444.52,Unlimited,SBD,M,
Boys,82.1,DQ,Julian C Ayala,Pharr Valley View,80.2,158.76,,,,Unlimited,SBD,M,
Boys,82.1,DQ,Andrew Alvarado,PSJA North,79.2,,,,,Unlimited,SBD,M,
Boys,82.1,DQ,Edgardo Duran,PSJA North,79.29,,,,,Unlimited,SBD,M,
Boys,82.1,DQ,Leo Trevino,Mission Sharyland,81.01,,,,,Unlimited,SBD,M,
Boys,89.81,1,Daniel De La Cruz,McAllen Memorial,89.72,267.62,161.03,244.94,673.58,Unlimited,SBD,M,
Boys,89.81,2,Jose Gallegos,PSJA Southwest,89.09,265.35,163.29,240.4,669.05,Unlimited,SBD,M,
Boys,89.81,3,John Trevino,PSJA North,88.81,274.42,136.08,231.33,641.83,Unlimited,SBD,M,
Boys,89.81,4,Armando Garcia,McAllen,89.63,233.6,174.63,226.8,635.03,Unlimited,SBD,M,
Boys,89.81,DQ,Kevin Llanas,PSJA North,84.78,,,,,Unlimited,SBD,M,
Boys,89.81,DQ,Andres Garza,PSJA North,89.27,,,,,Unlimited,SBD,M,
Boys,89.81,DQ,Ruben Trevino,Edinburg Vela,87.18,251.74,,,,Unlimited,SBD,M,
Boys,89.81,DQ,Juan Rodriguez,Edinburg Vela,87.91,278.96,,,,Unlimited,SBD,M,
Boys,89.81,DQ,Austin Yanez,McAllen,89.72,249.48,,,,Unlimited,SBD,M,
Boys,89.81,DQ,Noah Lopez,Edinburg Vela,86.64,183.7,124.74,,,Unlimited,SBD,M,
Boys,89.81,DQ,Nicolas Cantu,McAllen Rowe,84.01,204.12,,,,Unlimited,SBD,M,
Boys,99.79,1,Tomas Mendez,PSJA North,95.07,292.57,170.1,226.8,689.46,Unlimited,SBD,M,
Boys,99.79,2,Chris Deleon,Sharyland Pioneer,98.7,265.35,142.88,226.8,635.03,Unlimited,SBD,M,
Boys,99.79,3,Nick Garza,PSJA Memorial,95.8,249.48,151.95,215.46,616.89,Unlimited,SBD,M,
Boys,99.79,4,Angel Vega,McAllen,96.07,242.67,161.03,204.12,607.81,Unlimited,SBD,M,
Boys,99.79,5,Alejandro Rodriguez,McAllen Rowe,98.88,256.28,149.69,199.58,605.55,Unlimited,SBD,M,
Boys,99.79,6,Jesus Escojido,PSJA Southwest,99.34,215.46,158.76,215.46,589.67,Unlimited,SBD,M,
Boys,99.79,7,Sebastian Vasquez,Mission Sharyland,93.62,222.26,136.08,210.92,569.26,Unlimited,SBD,M,
Boys,99.79,8,Carlos Rivera,Pharr Valley View,94.62,217.72,149.69,199.58,566.99,Unlimited,SBD,M,
Boys,99.79,9,John Salazar,McAllen Rowe,98.7,226.8,151.95,183.7,562.45,Unlimited,SBD,M,
Boys,99.79,10,Damian Rodriguez,Mission Sharyland,99.43,235.87,127.01,188.24,551.11,Unlimited,SBD,M,
Boys,99.79,11,Adam Gonzalez,McAllen,96.34,183.7,122.47,158.76,464.93,Unlimited,SBD,M,
Boys,99.79,12,Rolando De La Rosa,Pharr Valley View,97.7,167.83,90.72,158.76,417.3,Unlimited,SBD,M,
Boys,99.79,DQ,Rigoberto Martinez,PSJA North,98.34,231.33,,,,Unlimited,SBD,M,
Boys,99.79,DQ,Patricio Garcia-Quiroz,McAllen Rowe,89.99,238.14,188.24,,,Unlimited,SBD,M,
Boys,99.79,DQ,Samuel Mata,Sharyland Pioneer,91.17,249.48,163.29,,,Unlimited,SBD,M,
Boys,109.77,1,Gustavo Escandon,McAllen Memorial,102.6,283.5,192.78,254.01,730.28,Unlimited,SBD,M,
Boys,109.77,2,Julian Lopez,PSJA Memorial,109.32,267.62,183.7,249.48,700.8,Unlimited,SBD,M,
Boys,109.77,3,Kristopher Perez,Edinburg Vela,106.78,226.8,197.31,215.46,639.57,Unlimited,SBD,M,
Boys,109.77,4,Timothy Cantu,PSJA North,106.87,235.87,136.08,210.92,582.87,Unlimited,SBD,M,
Boys,109.77,5,Salomon Romero,PSJA Southwest,105.87,226.8,142.88,199.58,569.26,Unlimited,SBD,M,
Boys,109.77,6,Jesus Ponce,PSJA Southwest,106.78,233.6,115.67,201.85,551.11,Unlimited,SBD,M,
Boys,109.77,7,Ivan Baralas,Pharr Valley View,106.5,217.72,124.74,204.12,546.58,Unlimited,SBD,M,
Boys,109.77,8,Luis Delagado,Sharyland Pioneer,108.41,204.12,122.47,185.97,512.56,Unlimited,SBD,M,
Boys,109.77,DQ,Pedro Vicencio,Pharr Valley View,101.79,192.78,111.13,,,Unlimited,SBD,M,
Boys,124.74,1,Jason Escobar,McAllen Memorial,123.83,324.32,235.87,272.16,832.34,Unlimited,SBD,M,
Boys,124.74,2,Carlos Rodriguez,McAllen Memorial,119.11,324.32,222.26,265.35,811.93,Unlimited,SBD,M,
Boys,124.74,3,Nick Thomas,PSJA Memorial,121.65,238.14,183.7,244.94,666.78,Unlimited,SBD,M,
Boys,124.74,4,Jose Escojido,PSJA Southwest,124.47,244.94,192.78,229.06,666.78,Unlimited,SBD,M,
Boys,124.74,5,Demetrio Talamantes,McAllen Rowe,112.76,240.4,158.76,188.24,587.4,Unlimited,SBD,M,
Boys,124.74,6,Julian Esqueda,Pharr Valley View,123.1,222.26,122.47,201.85,546.58,Unlimited,SBD,M,
Boys,124.74,DQ,Adrian Capetillo,PSJA Memorial,118.93,210.92,158.76,,,Unlimited,SBD,M,
Boys,139.71,1,Ezequiel Ozuna,McAllen Memorial,139.25,340.19,204.12,249.48,793.79,Unlimited,SBD,M,
Boys,139.71,2,Daimien Bramlett,Edinburg Vela,133.81,235.87,151.95,249.48,637.3,Unlimited,SBD,M,
Boys,139.71,3,Aaron Izaguirre,McAllen,129.73,208.65,142.88,199.58,551.11,Unlimited,SBD,M,
Boys,139.71,DQ,Ethan Hinojosa,Sharyland Pioneer,128.55,,,,,Unlimited,SBD,M,
Boys,139.71,DQ,Rene Gomez,McAllen Memorial,132.45,,,,,Unlimited,SBD,M,
Boys,139.71+,1,Adalberto Sanchez,Sharyland Pioneer,151.59,331.12,183.7,226.8,741.62,Unlimited,SBD,M,
Boys,139.71+,2,Aden De Leon,McAllen,142.79,254.01,201.85,192.78,648.64,Unlimited,SBD,M,
Boys,139.71+,3,Ivan Cantu,PSJA Memorial,147.96,249.48,170.1,219.99,639.57,Unlimited,SBD,M,
Boys,139.71+,DQ,Jordan Brewster,PSJA North,140.7,,,,,Unlimited,SBD,M,
Boys,139.71+,DQ,Marco Diaz,Edinburg Vela,199.58,,,,,Unlimited,SBD,M,
