Place,Name,Division,Equipment,Event,BirthDate,BirthYear,Sex,BodyweightKg,WeightClassKg,Squat1Kg,Squat2Kg,Squat3Kg,Best3SquatKg,Bench1Kg,Bench2Kg,Bench3Kg,Best3BenchKg,Deadlift1Kg,Deadlift2Kg,Deadlift3Kg,Best3DeadliftKg,TotalKg
1,Celia Roncalli,Sub-Juniors,Raw,SBD,,2008,F,51.42,52,77.5,85,90,90,50,52.5,55,55,90,100,107.5,107.5,252.5
1,Alizée Masson,Sub-Juniors,Raw,SBD,,2006,F,65.75,69,65,-72.5,72.5,72.5,45,-47.5,47.5,47.5,90,100,105,105,225
1,Manon Gasquy,Juniors,Raw,SBD,,2004,F,52,52,127.5,135,140,140,65,70,-72.5,70,152.5,157.5,-162.5,157.5,367.5
1,Cyrielle Saint Andre Beauregard,Juniors,Raw,SBD,,2004,F,56.32,57,125,-130,-130,125,57.5,60,-62.5,60,135,-150,-162.5,135,320
1,Eloise Pellat,Juniors,Raw,SBD,,2001,F,59,63,100,-107.5,-107.5,100,65,72.5,-77.5,72.5,150,-165,167.5,167.5,340
1,Justine Coldefy,Juniors,Raw,SBD,,2003,F,66.85,69,-110,120,-125,120,57.5,62.5,-65,62.5,125,142.5,150,150,332.5
1,Eloise Lacroix,Seniors,Raw,SBD,,1996,F,62.6,63,115,120,125,125,50,55,60,60,130,140,150,150,335
1,Lucie Boulanger,Seniors,Raw,SBD,,1999,F,67.75,69,125,132.5,137.5,137.5,65,-67.5,67.5,67.5,142.5,155,162.5,162.5,367.5
1,Emeline Rudnik,Seniors,Raw,SBD,,1992,F,90.7,84+,112.5,120,127.5,127.5,67.5,72.5,75,75,147.5,160,167.5,167.5,370
1,Françoise Calves,Masters 3,Raw,SBD,,1956,F,61.1,63,75,80,85,85,37.5,40,42.5,42.5,85,90,95,95,222.5
1,Maxime Delon,Sub-Juniors,Raw,SBD,,2007,M,63.45,66,110,120,130,130,70,75,-77.5,75,130,-140,-140,130,335
1,Paul Bonello,Sub-Juniors,Raw,SBD,,2007,M,74,74,180,192.5,200,200,122.5,-130,130,130,195,215,235,235,565
2,Matvei Elmakov,Sub-Juniors,Raw,SBD,,2006,M,73.4,74,170,180,185,185,-130,130,135,135,230,240,-250,240,560
1,Mathieu Boyer,Sub-Juniors,Raw,SBD,,2006,M,81.19,83,-222.5,235,247.5,247.5,147.5,150,-152.5,150,252.5,270,-287.5,270,667.5
2,Thomas Morrelli,Sub-Juniors,Raw,SBD,,2006,M,76.45,83,180,187.5,192.5,192.5,115,120,-125,120,-182.5,192.5,207.5,207.5,520
3,Alexandre Fache,Sub-Juniors,Raw,SBD,,2008,M,78.8,83,165,-170,-170,165,95,100,102.5,102.5,190,205,-212.5,205,472.5
4,Evan Saban,Sub-Juniors,Raw,SBD,,2009,M,78.6,83,130,135,140,140,95,102.5,-110,102.5,155,162.5,172.5,172.5,415
1,Kémil Benkhakhcha,Sub-Juniors,Raw,SBD,,2006,M,92,93,200,205,,205,95,100,-102.5,100,225,-242.5,-242.5,225,530
2,Vellutini Tino,Sub-Juniors,Raw,SBD,,2006,M,88.45,93,25,,,25,110,117.5,-125,117.5,25,,,25,167.5
1,Jonas Delile,Juniors,Raw,SBD,,2005,M,64.85,66,175,190,200,200,115,120,125,125,205,227.5,-235,227.5,552.5
1,Aurélien Delille,Juniors,Raw,SBD,,2003,M,73.45,74,215,227.5,235,235,140,145,150,150,230,245,-255,245,630
2,Mathieu Maari,Juniors,Raw,SBD,,2003,M,72.6,74,167.5,175,182.5,182.5,105,107.5,110,110,207.5,217.5,-225,217.5,510
3,Romain Courdy,Juniors,Raw,SBD,,2002,M,72.7,74,170,180,190,190,90,95,-100,95,207.5,217.5,-225,217.5,502.5
4,Maximillian Jaeger,Juniors,Raw,SBD,,2003,M,73,74,160,167.5,172.5,172.5,105,-110,-110,105,190,202.5,217.5,217.5,495
5,Jules Moreau,Juniors,Raw,SBD,,2001,M,68.6,74,132.5,142.5,150,150,100,105,110,110,200,210,220,220,480
6,Dominique Onditi,Juniors,Raw,SBD,,2003,M,72.1,74,120,130,140,140,-75,75,-85,75,150,165,180,180,395
1,Antonin Delbouys,Juniors,Raw,SBD,,2002,M,82.6,83,235,242.5,247.5,247.5,130,137.5,-140,137.5,232.5,245,255,255,640
2,Treyvor Dinane,Juniors,Raw,SBD,,2002,M,82.2,83,177.5,187.5,192.5,192.5,107.5,115,122.5,122.5,227.5,240,252.5,252.5,567.5
3,Grasset Tom,Juniors,Raw,SBD,,2002,M,76.5,83,170,180,190,190,112.5,120,127.5,127.5,205,220,232.5,232.5,550
4,Leo Gimeno,Juniors,Raw,SBD,,2001,M,82.1,83,175,185,-192.5,185,145,-150,150,150,195,200,-205,200,535
1,Tom Gouttebel,Juniors,Raw,SBD,,2005,M,89.4,93,220,232.5,242.5,242.5,145,155,-160,155,245,265,280,280,677.5
2,Noha Bellal,Juniors,Raw,SBD,,2004,M,92.4,93,220,240,247.5,247.5,152.5,160,162.5,162.5,250,-267.5,-267.5,250,660
3,Jawad Benchkoura Faure,Juniors,Raw,SBD,,2003,M,92.55,93,230,-242.5,-242.5,230,145,155,-157.5,155,245,265,-292.5,265,650
4,Laurent Pellegrini,Juniors,Raw,SBD,,2004,M,88.7,93,202.5,212.5,217.5,217.5,127.5,135,140,140,230,242.5,250,250,607.5
1,Theo Colliot-Martinez,Juniors,Raw,SBD,,2004,M,99.3,105,190,200,-207.5,200,140,147.5,152.5,152.5,220,240,-245,240,592.5
1,Lucas Pavone,Juniors,Raw,SBD,,2001,M,109.2,120,202.5,212.5,222.5,222.5,115,120,125,125,205,220,-230,220,567.5
1,Jean Nguyen Dac,Seniors,Raw,SBD,,1998,M,58,59,150,157.5,-165,157.5,95,-100,100,100,175,190,200,200,457.5
1,Thomas Pierre,Seniors,Raw,SBD,,1985,M,65.3,66,145,152.5,157.5,157.5,85,90,-92.5,90,145,152.5,-180,152.5,400
1,Cyril Parrot,Seniors,Raw,SBD,,1997,M,71.9,74,200,210,220,220,130,140,-150,140,240,250,-260,250,610
2,Adrien Berdal,Seniors,Raw,SBD,,1989,M,73.5,74,195,-205,-205,195,120,-122.5,-122.5,120,200,225,237.5,237.5,552.5
3,Julien Regnier,Seniors,Raw,SBD,,1998,M,73.5,74,170,180,-190,180,110,-120,-120,110,200,220,-237.5,220,510
1,Maurizio Bellagamba,Seniors,Raw,SBD,,1992,M,73.5,74,152.5,160,165,165,85,-90,-90,85,160,170,177.5,177.5,427.5
1,Loic Le Neuresse,Seniors,Raw,SBD,,1987,M,82.3,83,192.5,197.5,202.5,202.5,142.5,-147.5,-147.5,142.5,240,252.5,262.5,262.5,607.5
2,Florentin Berruyer,Seniors,Raw,SBD,,2000,M,81,83,185,200,210,210,115,125,-130,125,215,230,-240,230,565
3,Maxence Olmo,Seniors,Raw,SBD,,1999,M,81.2,83,175,190,-200,190,115,125,130,130,200,215,225,225,545
4,Julien Matacchione,Seniors,Raw,SBD,,1989,M,79.3,83,165,175,185,185,120,127.5,-130,127.5,200,215,220,220,532.5
1,Quentin Garcia #2,Seniors,Raw,SBD,,1995,M,83.55,93,190,200,205,205,125,132.5,137.5,137.5,210,220,230,230,572.5
2,Guillaume Melek,Seniors,Raw,SBD,,1988,M,92.7,93,170,185,192.5,192.5,110,117.5,122.5,122.5,192.5,215,225,225,540
3,Loic Febre,Seniors,Raw,SBD,,1994,M,87,93,180,190,-195,190,107.5,112.5,117.5,117.5,205,220,230,230,537.5
4,Anthony Lines,Seniors,Raw,SBD,,1994,M,91.6,93,155,-162.5,170,170,115,120,125,125,200,215,220,220,515
5,Adrien Bouty,Seniors,Raw,SBD,,1996,M,88.85,93,120,130,150,150,90,100,-105,100,160,180,200,200,450
1,Nathan Untz,Seniors,Raw,SBD,,2000,M,93.3,105,200,207.5,215,215,-75,85,95,95,225,-240,240,240,550
1,Jérôme Biancamaria,Seniors,Raw,SBD,,1989,M,109.4,120,205,215,-222.5,215,120,127.5,130,130,225,237.5,245,245,590
2,Kevin Laffon,Seniors,Raw,SBD,,1990,M,115.6,120,185,195,205,205,95,100,105,105,200,-220,220,220,530
1,Clément Amphoux,Seniors,Raw,SBD,,1998,M,126.5,120+,220,230,240,240,120,127.5,132.5,132.5,230,245,260,260,632.5
1,Jérôme Nadal,Masters 1,Raw,SBD,,1980,M,82,83,145,152.5,160,160,85,90,-92.5,90,200,212.5,-222.5,212.5,462.5
1,Florent Briganti,Masters 1,Raw,SBD,,1984,M,103.2,105,200,210,-215,210,125,135,142.5,142.5,215,230,-247.5,230,582.5
2,Farid Hamedi,Masters 1,Raw,SBD,,1975,M,105,105,175,180,190,190,-115,120,-125,120,200,210,220,220,530
1,Igor Castang,Masters 1,Raw,SBD,,1976,M,119.95,120,225,235,245,245,140,147.5,152.5,152.5,225,242.5,-262.5,242.5,640
1,Christian Vottero,Masters 2,Raw,SBD,,1966,M,81.7,83,-157.5,162.5,167.5,167.5,117.5,120,-125,120,185,200,212.5,212.5,500
1,Gilles Zakarian,Masters 2,Raw,SBD,,1965,M,92.8,93,180,190,197.5,197.5,135,142.5,147.5,147.5,200,215,230,230,575
1,Jean Louis Goyffon,Masters 3,Raw,SBD,,1955,M,91.35,93,105,-115,115,115,80,85,90,90,130,140,145,145,350
1,Serge Dugot,Masters 4,Raw,SBD,,1952,M,71.85,74,90,95,100,100,70,75,-77.5,75,110,115,125,125,300
2,Pierre Calves,Masters 4,Raw,SBD,,1949,M,70.15,74,85,90,95,95,60,65,67.5,67.5,110,115,120,120,282.5
1,Jean-Paul Belmas,Masters 4,Raw,SBD,,1949,M,104.05,105,130,145,150,150,50,60,70,70,120,150,160,160,380
