Division,WeightClassKg,Place,Name,Team,BodyweightKg,Best3SquatKg,Best3BenchKg,Best3DeadliftKg,TotalKg,Equipment,Event,Sex,BirthDate
Boys,51.71,1,Gabriel Guzman,Mission Sharyland,51.26,183.7,86.18,190.51,460.4,Unlimited,SBD,M,
Boys,51.71,2,Leonardo Sauceda,Edinburg Economedes,50.53,158.76,86.18,142.88,387.82,Unlimited,SBD,M,
Boys,51.71,3,Christopher Martinez,Mission,51.71,136.08,83.91,133.81,353.8,Unlimited,SBD,M,
Boys,51.71,4,Haziel Guzman,Mission Sharyland,51.26,124.74,74.84,142.88,342.46,Unlimited,SBD,M,
Boys,51.71,5,Matthew Granado,Mercedes,44,68.04,54.43,102.06,224.53,Unlimited,SBD,M,
Boys,55.79,1,Deondre Moody,Donna North,54.88,188.24,124.74,215.46,528.44,Unlimited,SBD,M,
Boys,55.79,2,Gerardo Sanchez,Mercedes,54.98,188.24,102.06,215.46,505.76,Unlimited,SBD,M,
Boys,55.79,3,Joe Cruz,Edinburg North,55.16,142.88,92.99,179.17,415.04,Unlimited,SBD,M,
Boys,55.79,4,Erasmo Rodriguez,La Joya,54.79,142.88,86.18,149.69,378.75,Unlimited,SBD,M,
Boys,55.79,5,Julian Cabrera,Mercedes,54.66,133.81,95.25,129.27,358.34,Unlimited,SBD,M,
Boys,55.79,6,Gerardo Sandoval,PSJA Memorial,55.79,142.88,79.38,131.54,353.8,Unlimited,SBD,M,
Boys,55.79,7,Juan Sanchez,Pharr Valley View,54.07,117.93,72.57,149.69,340.19,Unlimited,SBD,M,
Boys,55.79,8,Derek Vega,La Joya,52.53,102.06,52.16,111.13,265.35,Unlimited,SBD,M,
Boys,55.79,9,Jeremiah Alaniz,McAllen Rowe,54.98,83.91,52.16,83.91,219.99,Unlimited,SBD,M,
Boys,59.87,1,Ulises Enriquez,Mercedes,59.87,215.46,117.93,213.19,546.58,Unlimited,SBD,M,
Boys,59.87,2,Eddie Gonzalez,Mercedes,59.87,188.24,102.06,210.92,501.22,Unlimited,SBD,M,
Boys,59.87,3,Ruben Robles,McAllen Memorial,59.42,165.56,117.93,190.51,474,Unlimited,SBD,M,
Boys,59.87,4,Darrius Capetillo,McAllen Memorial,59.87,183.7,106.59,170.1,460.4,Unlimited,SBD,M,
Boys,59.87,5,Julian Hernandez,Edinburg North,59.78,165.56,104.33,156.49,426.38,Unlimited,SBD,M,
Boys,59.87,6,Jesus Quintanilla,Edinburg,59.06,140.61,86.18,154.22,381.02,Unlimited,SBD,M,
Boys,59.87,7,Luis Lopez,Edinburg North,59.24,142.88,77.11,142.88,362.87,Unlimited,SBD,M,
Boys,59.87,8,Jose A Saenz,Mission Sharyland,59.42,124.74,79.38,138.35,342.46,Unlimited,SBD,M,
Boys,59.87,9,Cristian Puerta,PSJA Memorial,59.87,117.93,79.38,129.27,326.59,Unlimited,SBD,M,
Boys,59.87,10,Christopher Laboy,Mission,59.87,83.91,45.36,97.52,226.8,Unlimited,SBD,M,
Boys,59.87,DQ,Melvin Sandoval,La Joya,59.87,151.95,90.72,,,Unlimited,SBD,M,
Boys,67.13,1,Devon Trevino,Mercedes,65.77,258.55,151.95,235.87,646.37,Unlimited,SBD,M,
Boys,67.13,2,Isaiah Castro,Mercedes,66.22,233.6,151.95,226.8,612.35,Unlimited,SBD,M,
Boys,67.13,3,Julius Molina,Edinburg North,66.95,240.4,131.54,204.12,576.06,Unlimited,SBD,M,
Boys,67.13,4,Jonathan Hernandez,Edinburg Economedes,67.13,213.19,124.74,226.8,564.72,Unlimited,SBD,M,
Boys,67.13,5,Santiago Rogel,Donna North,66.22,213.19,108.86,208.65,530.7,Unlimited,SBD,M,
Boys,67.13,6,Emiliano Fraga,PSJA,67.13,192.78,124.74,183.7,501.22,Unlimited,SBD,M,
Boys,67.13,7,Francisco Lopez,McAllen Rowe,66.32,172.37,104.33,213.19,489.88,Unlimited,SBD,M,
Boys,67.13,8,Kevin Lopez,Donna North,66.9,192.78,92.99,190.51,476.27,Unlimited,SBD,M,
Boys,67.13,9,Rolando Saenz,Edinburg,66.68,165.56,115.67,154.22,435.45,Unlimited,SBD,M,
Boys,67.13,10,Natanael Barrera,Mercedes,66.68,145.15,95.25,183.7,424.11,Unlimited,SBD,M,
Boys,67.13,11,Anthony Azua,Mission Veterans Memorial,65.77,147.42,108.86,142.88,399.16,Unlimited,SBD,M,
Boys,67.13,12,Axel Colunga,McAllen,65.54,145.15,102.06,149.69,396.89,Unlimited,SBD,M,
Boys,67.13,13,Christopher Custodio,Pharr Valley View,66.77,151.95,90.72,145.15,387.82,Unlimited,SBD,M,
Boys,67.13,14,Jeremy Aguinaga,Edinburg,66.32,140.61,88.45,147.42,376.48,Unlimited,SBD,M,
Boys,67.13,15,Edrik A Rodriguez,Mission Sharyland,61.69,133.81,83.91,154.22,371.95,Unlimited,SBD,M,
Boys,67.13,16,Homer Camacho,PSJA Memorial,61.23,136.08,81.65,136.08,353.8,Unlimited,SBD,M,
Boys,67.13,DQ,Joaquin Castaneda,Edinburg Economedes,66.32,,,,,Unlimited,SBD,M,
Boys,67.13,DQ,Elias Mayorga,Mission Veterans Memorial,66.68,158.76,,,,Unlimited,SBD,M,
Boys,74.84,1,Jaidan Alaniz,La Joya,74.48,247.21,133.81,247.21,628.23,Unlimited,SBD,M,
Boys,74.84,2,Jacob Jimenez,PSJA Memorial,71.67,206.38,133.81,231.33,571.53,Unlimited,SBD,M,
Boys,74.84,3,Damian Villalpando,La Joya,71.94,233.6,120.2,215.46,569.26,Unlimited,SBD,M,
Boys,74.84,4,Isaac Santoyo,McAllen,74.48,217.72,145.15,192.78,555.65,Unlimited,SBD,M,
Boys,74.84,5,Jacob Faz,Edinburg North,74.3,204.12,120.2,226.8,551.11,Unlimited,SBD,M,
Boys,74.84,6,Kalel De Leon,Mission Veterans Memorial,68.04,167.83,147.42,190.51,505.76,Unlimited,SBD,M,
Boys,74.84,7,Eric Adrian,McAllen Memorial,72.94,215.46,117.93,170.1,503.49,Unlimited,SBD,M,
Boys,74.84,8,Adrian Falcon,Edinburg,74.75,176.9,124.74,170.1,471.74,Unlimited,SBD,M,
Boys,74.84,9,Javier Saldana,Edinburg,74.03,163.29,122.47,176.9,462.66,Unlimited,SBD,M,
Boys,74.84,10,Hijinio Hernandez,Mission Veterans Memorial,74.39,154.22,99.79,176.9,430.91,Unlimited,SBD,M,
Boys,74.84,11,Woodrow Villareal,Edinburg,70.53,163.29,92.99,170.1,426.38,Unlimited,SBD,M,
Boys,74.84,12,Nicolas Martinez,PSJA North,69.4,147.42,115.67,151.95,415.04,Unlimited,SBD,M,
Boys,74.84,13,Jacob Reyes,Edinburg,73.66,129.27,102.06,158.76,390.09,Unlimited,SBD,M,
Boys,74.84,14,Carlos Gomez,PSJA North,71.58,120.2,90.72,142.88,353.8,Unlimited,SBD,M,
Boys,74.84,DQ,Israel Fiscal,Pharr Valley View,72.03,149.69,,,,Unlimited,SBD,M,
Boys,74.84,DQ,Cristof Tollett,Pharr Valley View,71.58,190.51,,,,Unlimited,SBD,M,
Boys,82.1,1,Juan Méndez,PSJA North,75.75,233.6,136.08,222.26,591.94,Unlimited,SBD,M,
Boys,82.1,2,Andrew Alvarado,PSJA North,78.11,251.74,136.08,204.12,591.94,Unlimited,SBD,M,
Boys,82.1,3,Marco Maynez,PSJA,82.1,192.78,158.76,197.31,548.85,Unlimited,SBD,M,
Boys,82.1,4,Adan De La Cruz,McAllen Rowe,75.75,190.51,151.95,190.51,532.97,Unlimited,SBD,M,
Boys,82.1,5,Josiah Gonzalez,McAllen,76.66,197.31,124.74,206.38,528.44,Unlimited,SBD,M,
Boys,82.1,6,Fernando Morales,Edinburg Economedes,79.74,204.12,117.93,204.12,526.17,Unlimited,SBD,M,
Boys,82.1,7,Edurado Garza,Mission,82.1,199.58,131.54,190.51,521.63,Unlimited,SBD,M,
Boys,82.1,8,Alek Anzaldua,McAllen Rowe,80.97,197.31,127.01,167.83,492.15,Unlimited,SBD,M,
Boys,82.1,9,Angel Castillo,McAllen,79.56,181.44,115.67,183.7,480.81,Unlimited,SBD,M,
Boys,82.1,10,Mason Cantu,McAllen,76.2,167.83,108.86,201.85,478.54,Unlimited,SBD,M,
Boys,82.1,11,Kevin Casiano,Mission Veterans Memorial,78.93,188.24,108.86,174.63,471.74,Unlimited,SBD,M,
Boys,82.1,12,Romeo Agueros,Mission Veterans Memorial,82.1,165.56,108.86,188.24,462.66,Unlimited,SBD,M,
Boys,82.1,13,Mario Perez Flores,Mission Sharyland,78.02,151.95,106.59,195.04,453.59,Unlimited,SBD,M,
Boys,82.1,14,Jayson Navarro,Mission Veterans Memorial,77.56,163.29,124.74,151.95,439.98,Unlimited,SBD,M,
Boys,82.1,15,Adrian Mercado,La Joya,80.29,183.7,90.72,165.56,439.98,Unlimited,SBD,M,
Boys,82.1,16,Guillermo Garcia,Mission Veterans Memorial,75.39,167.83,104.33,163.29,435.45,Unlimited,SBD,M,
Boys,82.1,17,Sam Hefley,McAllen,81.19,158.76,115.67,156.49,430.91,Unlimited,SBD,M,
Boys,82.1,18,Daniel Moreno,Mission Veterans Memorial,79.83,151.95,117.93,151.95,421.84,Unlimited,SBD,M,
Boys,82.1,19,Julian Ayala,Pharr Valley View,80.47,167.83,90.72,151.95,410.5,Unlimited,SBD,M,
Boys,82.1,DQ,Javier Garcia,Mercedes,80.92,,,,,Unlimited,SBD,M,
Boys,89.81,1,Andres Garza,PSJA North,88.81,297.1,165.56,263.08,725.75,Unlimited,SBD,M,
Boys,89.81,2,Francisco Marichalar,Edinburg Economedes,88.81,238.14,174.63,222.26,635.03,Unlimited,SBD,M,
Boys,89.81,3,Austin Yanez,McAllen,86.73,240.4,165.56,210.92,616.89,Unlimited,SBD,M,
Boys,89.81,4,Daniel De La Cruz,McAllen Memorial,89.54,247.21,147.42,213.19,607.81,Unlimited,SBD,M,
Boys,89.81,5,Nickulas Moss,McAllen,87.72,224.53,151.95,210.92,587.4,Unlimited,SBD,M,
Boys,89.81,6,Kevin Llanas,PSJA North,85.64,224.53,149.69,201.85,576.06,Unlimited,SBD,M,
Boys,89.81,7,Armando Garcia,McAllen,89.27,197.31,154.22,217.72,569.26,Unlimited,SBD,M,
Boys,89.81,8,Dominic Villarreal,Edinburg North,89.27,213.19,133.81,215.46,562.45,Unlimited,SBD,M,
Boys,89.81,9,Andre Zambrano,La Joya,85,174.63,170.1,201.85,546.58,Unlimited,SBD,M,
Boys,89.81,10,Nicolas Cantu,McAllen Rowe,84.01,195.04,108.86,238.14,542.04,Unlimited,SBD,M,
Boys,89.81,11,Devin Torres,Mission,89.81,204.12,111.13,215.46,530.7,Unlimited,SBD,M,
Boys,89.81,12,Jesus Garza,PSJA,89.81,176.9,136.08,179.17,492.15,Unlimited,SBD,M,
Boys,89.81,13,Manuel Hernandez,Edinburg North,87.54,170.1,140.61,156.49,467.2,Unlimited,SBD,M,
Boys,89.81,14,Devin Lerma,Mission Veterans Memorial,89.45,142.88,122.47,156.49,421.84,Unlimited,SBD,M,
Boys,89.81,15,Marcus Desiga,Mission Veterans Memorial,88.45,151.95,92.99,129.27,374.21,Unlimited,SBD,M,
Boys,89.81,16,Julius Luera,PSJA North,87.27,120.2,102.06,127.01,349.27,Unlimited,SBD,M,
Boys,89.81,DQ,Orvelin Nunez,Edinburg Economedes,85.73,204.12,138.35,,,Unlimited,SBD,M,
Boys,99.79,1,Angel Gonzalez,Mission,96.16,244.94,142.88,183.7,571.53,Unlimited,SBD,M,
Boys,99.79,2,Carlos Rivera,Pharr Valley View,93.44,215.46,147.42,199.58,562.45,Unlimited,SBD,M,
Boys,99.79,3,Israel Martinez,PSJA Memorial,91.72,204.12,151.95,204.12,560.19,Unlimited,SBD,M,
Boys,99.79,4,Miguel Maynez,PSJA,98.2,215.46,129.27,206.38,551.11,Unlimited,SBD,M,
Boys,99.79,5,Rigoberto Martinez,PSJA North,98.79,215.46,133.81,165.56,514.83,Unlimited,SBD,M,
Boys,99.79,6,Jose Benavidez,Donna North,91.4,195.04,113.4,174.63,483.08,Unlimited,SBD,M,
Boys,99.79,7,Alessandro Garfiaz,Mission,99.79,174.63,124.74,165.56,464.93,Unlimited,SBD,M,
Boys,99.79,8,Rolando De La Rosa,Pharr Valley View,95.89,149.69,92.99,147.42,390.09,Unlimited,SBD,M,
Boys,99.79,DQ,Sebastian Espinoza,Pharr Valley View,91.17,136.08,,,,Unlimited,SBD,M,
Boys,99.79,DQ,Tomas Mendez,PSJA North,96.62,,,,,Unlimited,SBD,M,
Boys,109.77,1,Aydin Torres,Edinburg North,109.23,324.32,226.8,224.53,775.64,Unlimited,SBD,M,
Boys,109.77,2,Ethan Anciso,Mercedes,100.38,254.01,183.7,235.87,673.58,Unlimited,SBD,M,
Boys,109.77,3,Julian Lopez,PSJA Memorial,107.23,249.48,158.76,238.14,646.37,Unlimited,SBD,M,
Boys,109.77,4,Jacob Cuevas,PSJA,104.69,244.94,161.03,233.6,639.57,Unlimited,SBD,M,
Boys,109.77,5,Ismael Garcia,Edinburg Economedes,104.24,249.48,161.03,215.46,625.96,Unlimited,SBD,M,
Boys,109.77,6,Aaron Izaguirre,PSJA Memorial,105.69,217.72,163.29,235.87,616.89,Unlimited,SBD,M,
Boys,109.77,7,Emilio Gonzalez,PSJA Memorial,109.04,224.53,138.35,217.72,580.6,Unlimited,SBD,M,
Boys,109.77,8,Javier Garcia,Donna North,101.33,213.19,136.08,226.8,576.06,Unlimited,SBD,M,
Boys,109.77,9,Diego Galvan,Edinburg Economedes,109.77,215.46,142.88,208.65,566.99,Unlimited,SBD,M,
Boys,109.77,10,Ryan Garza,Edinburg,100.97,215.46,124.74,195.04,535.24,Unlimited,SBD,M,
Boys,109.77,11,Timothy Cantu,PSJA North,105.46,226.8,124.74,183.7,535.24,Unlimited,SBD,M,
Boys,109.77,12,Ivan Barajas,Pharr Valley View,105.69,208.65,122.47,195.04,526.17,Unlimited,SBD,M,
Boys,109.77,13,Jose Portales,La Joya,102.97,192.78,129.27,154.22,476.27,Unlimited,SBD,M,
Boys,109.77,14,Pedro Vicenio,Pharr Valley View,100.79,158.76,111.13,151.95,421.84,Unlimited,SBD,M,
Boys,109.77,15,Javier Zapata,McAllen,107.95,167.83,102.06,151.95,421.84,Unlimited,SBD,M,
Boys,109.77,16,Santiago Villanueva,McAllen Rowe,100.24,158.76,95.25,158.76,412.77,Unlimited,SBD,M,
Boys,109.77,DQ,Ruben Abundis,Edinburg Economedes,103.87,226.8,,,,Unlimited,SBD,M,
Boys,109.77,DQ,Domingo Villareal,Mission,109.77,201.85,174.63,,,Unlimited,SBD,M,
Boys,124.74,1,Oliver Hernandez,Mercedes,120.02,272.16,165.56,219.99,657.71,Unlimited,SBD,M,
Boys,124.74,2,Angel Trujillo,Mercedes,111.77,244.94,124.74,229.06,598.74,Unlimited,SBD,M,
Boys,124.74,3,Nick Thomas,PSJA Memorial,120.38,206.38,165.56,226.8,598.74,Unlimited,SBD,M,
Boys,124.74,4,Esteban Damian,Edinburg,114.08,208.65,142.88,217.72,569.26,Unlimited,SBD,M,
Boys,124.74,5,Alfonso Murillo,La Joya,113.94,215.46,145.15,197.31,557.92,Unlimited,SBD,M,
Boys,124.74,6,Adrien Capetillo,PSJA Memorial,118.48,199.58,151.95,206.38,557.92,Unlimited,SBD,M,
Boys,124.74,7,Ronald Guerra,Edinburg North,121.65,201.85,129.27,226.8,557.92,Unlimited,SBD,M,
Boys,124.74,8,Alejandro Ramon,Edinburg North,117.71,210.92,145.15,197.31,553.38,Unlimited,SBD,M,
Boys,124.74,9,Sebastian Herrera,McAllen Memorial,115.67,206.38,165.56,179.17,551.11,Unlimited,SBD,M,
Boys,124.74,10,Julian Esqueda,Pharr Valley View,122.83,179.17,113.4,174.63,467.2,Unlimited,SBD,M,
Boys,124.74,11,Jose Garibaldi,La Joya,110.9,149.69,79.38,136.08,365.14,Unlimited,SBD,M,
Boys,124.74,12,Andre Sandoval,McAllen Rowe,120.75,124.74,86.18,136.08,347,Unlimited,SBD,M,
Boys,124.74,13,Nicolas Galindo,McAllen Rowe,121.61,120.2,74.84,131.54,326.59,Unlimited,SBD,M,
Boys,139.71,1,Isaiah Loya,Donna North,135.35,335.66,204.12,244.94,784.71,Unlimited,SBD,M,
Boys,139.71,2,Rene Gomez,McAllen Memorial,136.3,317.51,183.7,226.8,728.02,Unlimited,SBD,M,
Boys,139.71,3,Jordan Brewster,PSJA North,139.71,260.82,151.95,201.85,614.62,Unlimited,SBD,M,
Boys,139.71,4,Justin Saldana,PSJA,127.23,272.16,167.83,172.37,612.35,Unlimited,SBD,M,
Boys,139.71,5,Robert Torres,Edinburg,127.01,208.65,117.93,174.63,501.22,Unlimited,SBD,M,
Boys,139.71,6,Jerry Mancha,Edinburg North,131,195.04,151.95,151.95,498.95,Unlimited,SBD,M,
Boys,139.71+,1,Pedro Martinez,PSJA,162.2,281.23,165.56,229.06,675.85,Unlimited,SBD,M,
Boys,139.71+,2,Ivan Cantu,PSJA Memorial,146.06,204.12,149.69,195.04,548.85,Unlimited,SBD,M,
Boys,139.71+,3,Alexander Sosa,La Joya,162.02,179.17,133.81,179.17,492.15,Unlimited,SBD,M,
Boys,139.71+,4,Jovanny Lopez,Donna North,141.79,195.04,117.93,167.83,480.81,Unlimited,SBD,M,
Boys,139.71+,5,Oscar Flores,Edinburg North,162.75,183.7,124.74,165.56,474,Unlimited,SBD,M,
Boys,139.71+,6,Humberto Gonzalez,La Joya,140.84,147.42,86.18,170.1,403.7,Unlimited,SBD,M,
Boys,139.71+,7,Jan Mireles,Donna North,168.06,113.4,68.04,145.15,326.59,Unlimited,SBD,M,
Boys,139.71+,DQ,Rene Rivera,Edinburg,177.13,142.88,,,,Unlimited,SBD,M,
