Place,Name,Country,Age,BodyweightKg,Division,WeightClassKg,Squat1Kg,Squat2Kg,Squat3Kg,Squat4Kg,Best3SquatKg,Bench1Kg,Bench2Kg,Bench3Kg,Bench4Kg,Best3BenchKg,Deadlift1Kg,Deadlift2Kg,Deadlift3Kg,Deadlift4Kg,Best3DeadliftKg,TotalKg,Event,Sex,Equipment,BirthDate
1,Diana Balážová,Slovakia,19,98.9,Teen 18-19,90+,,,,,,40,45,50,,50,,,,,,50,B,F,Raw,
1,Daniela Poláková,Czechia,45,60.6,Masters 45-49,67.5,,,,,,85,90,95,,95,,,,,,95,B,F,Raw,
1,Tatiana Magulová,Slovakia,40,75.4,Masters 40-44,82.5,,,,,,90,95,100,,100,,,,,,100,B,F,Raw,
1,Libuše Leiblová,Czechia,61,81,Masters 60-64,82.5,,,,,,100,115,120,,120,,,,,,120,B,F,Raw,
1,Simona Lacková,Slovakia,29,51.4,Open,52,,,,,,55,60,-61,,60,,,,,,60,B,F,Raw,
2,Karolína Lončarová,Slovakia,29,54,Open,56,,,,,,50,55,58,60,58,,,,,,58,B,F,Raw,
1,Lucia Debnárová,Slovakia,34,59.6,Open,60,,,,,,70,77.5,81,-82,81,,,,,,81,B,F,Raw,
2,Petra Lampertová,Slovakia,30,70.8,Open,75,,,,,,50,57.5,60,,60,,,,,,60,B,F,Raw,
1,Marcela Támarová,Slovakia,35,80.5,Submasters 35-39,82.5,,,,,,85,95,100,,100,,,,,,100,B,F,Raw,
1,Miroslav Berki,Slovakia,16,54.4,Teen 16-17,56,,,,,,75,85,95,,95,,,,,,95,B,M,Raw,
1,Filip Šimčík,Slovakia,16,66.6,Teen 16-17,67.5,,,,,,100,105,-110,,105,,,,,,105,B,M,Raw,
2,Gabriel Mikušiak,Slovakia,16,73.5,Teen 16-17,75,,,,,,-95,95,102.5,,102.5,,,,,,102.5,B,M,Raw,
1,Ľubomír Dvorový,Slovakia,17,90,Teen 16-17,90,,,,,,132.5,137.5,140,,140,,,,,,140,B,M,Raw,
2,Peter Hudec,Slovakia,16,88.6,Teen 16-17,90,,,,,,110,-120,125,,125,,,,,,125,B,M,Raw,
1,Ivan Hajdoni,Slovakia,19,89.4,Teen 18-19,90,,,,,,175,182.5,187.5,,187.5,,,,,,187.5,B,M,Raw,
2,Adam Wirth,Slovakia,19,86.3,Teen 18-19,90,,,,,,-135,-140,140,,140,,,,,,140,B,M,Raw,
3,Krisztián Deme,Slovakia,19,86.7,Teen 18-19,90,,,,,,120,130,135,,135,,,,,,135,B,M,Raw,
4,Andrej Moravanský,Slovakia,19,75.4,Teen 18-19,82.5,,,,,,-110,110,-122.5,,110,,,,,,110,B,M,Raw,
1,Jakub Cepko,Slovakia,19,99.5,Teen 18-19,100,,,,,,135,145,-150,,145,,,,,,145,B,M,Raw,
1,Samuel Hojer,Slovakia,19,109.8,Teen 18-19,110,,,,,,170,175,181,-185,181,,,,,,181,B,M,Raw,
1,Marek Salay,Slovakia,18,128,Teen 18-19,140,,,,,,165,170,-180,,170,,,,,,170,B,M,Raw,
1,Milan Vojačik,Slovakia,21,59,Juniors 20-23,60,,,,,,80,90.5,92.5,,92.5,,,,,,92.5,B,M,Raw,
1,Radovan Čech,Slovakia,21,74.2,Juniors 20-23,75,,,,,,135,140,146,150,146,,,,,,146,B,M,Raw,
1,Tamás Lóczi,Hungary,20,80,Juniors 20-23,82.5,,,,,,105,112.5,120,,120,,,,,,120,B,M,Raw,
2,Jakub Kuba,Slovakia,21,85.5,Juniors 20-23,90,,,,,,60,75,-85,,75,,,,,,75,B,M,Raw,
DQ,Dominik Baran,Slovakia,23,80.7,Juniors 20-23,82.5,,,,,,-120,-120,-120,,,,,,,,,B,M,Raw,
1,Martin Šuverík,Slovakia,21,100,Juniors 20-23,100,,,,,,165,175,-180,,175,,,,,,175,B,M,Raw,
1,Juraj Bystrianský,Slovakia,22,114.5,Juniors 20-23,125,,,,,,210,220,226,,226,,,,,,226,B,M,Raw,
1,Mário Zastko,Slovakia,26,74.1,Open,75,,,,,,150,156,-160,-160,156,,,,,,156,B,M,Raw,
2,Michal Kozma,Slovakia,29,74.1,Open,75,,,,,,145,150,155,-160,155,,,,,,155,B,M,Raw,
3,Ján Šebo,Slovakia,30,73.9,Open,75,,,,,,132.5,-137.5,,,132.5,,,,,,132.5,B,M,Raw,
4,Erik Kondákor,Slovakia,35,67.5,Submasters 35-39,67.5,,,,,,107.5,115,-117.5,,115,,,,,,115,B,M,Raw,
1,Ján Špais,Slovakia,26,88.9,Open,90,,,,,,-205.5,-205.5,205.5,-210.5,205.5,,,,,,205.5,B,M,Raw,
2,Dominik Šafránek,Slovakia,30,85.8,Open,90,,,,,,160,170,-172.5,,170,,,,,,170,B,M,Raw,
3,Tomáš Dobiáš,Slovakia,24,83.3,Open,90,,,,,,162.5,-170,-170,,162.5,,,,,,162.5,B,M,Raw,
4,Oliver Jackanin,Slovakia,29,89.6,Open,90,,,,,,160,-165,-165,,160,,,,,,160,B,M,Raw,
5,Maciej Markowski #2,Slovakia,37,87.5,Submasters 35-39,90,,,,,,140,147.5,152.5,-161,152.5,,,,,,152.5,B,M,Raw,
6,Erik Valent,Slovakia,37,80.6,Submasters 35-39,82.5,,,,,,141,150.5,,,150.5,,,,,,150.5,B,M,Raw,
7,Ján Babčan,Slovakia,35,79.1,Open,82.5,,,,,,140,147.5,-157.5,,147.5,,,,,,147.5,B,M,Raw,
8,Ivan Lazor,Slovakia,30,84.5,Open,90,,,,,,125,135,-140,,135,,,,,,135,B,M,Raw,
9,Šimon Michalov,Slovakia,29,87.5,Open,90,,,,,,125,130,-132.5,,130,,,,,,130,B,M,Raw,
10,Ján Hruška,Slovakia,33,88.1,Open,90,,,,,,-100,100,110,,110,,,,,,110,B,M,Raw,
11,Martin Mihálik,Slovakia,25,82.5,Open,82.5,,,,,,90,100,-110,,100,,,,,,100,B,M,Raw,
1,Ákos Oláh,Hungary,33,99.3,Open,100,,,,,,200,210,217.5,,217.5,,,,,,217.5,B,M,Raw,
2,Tomáš Kríž,Slovakia,29,96.3,Open,100,,,,,,180,190,-200,,190,,,,,,190,B,M,Raw,
3,Szuder Károly,Hungary,35,97.7,Submasters 35-39,100,,,,,,180,185,,,185,,,,,,185,B,M,Raw,
4,Šimon Elischer,Slovakia,25,99.1,Open,100,,,,,,160,-170,,,160,,,,,,160,B,M,Raw,
5,Marek Hmelár,Slovakia,30,122.6,Open,125,,,,,,150,-160,-160,,150,,,,,,150,B,M,Raw,
1,Ádám Moszkál,Hungary,26,110.1,Open,125,,,,,,240,-250,255,,255,,,,,,255,B,M,Raw,
2,Branislav Háber,Slovakia,27,124.8,Open,125,,,,,,230,237.5,-240,,237.5,,,,,,237.5,B,M,Raw,
3,Stanislav Močkor,Slovakia,25,110,Open,110,,,,,,218,225,-230.5,-230.5,225,,,,,,225,B,M,Raw,
4,Pavol Ivan,Slovakia,38,128.7,Submasters 35-39,140,,,,,,210,215,-220.5,-220.5,215,,,,,,215,B,M,Raw,
5,Štefan Nagy,Slovakia,39,115.2,Submasters 35-39,125,,,,,,-170,-170,170,,170,,,,,,170,B,M,Raw,
6,Leevi Leppäjärvi,Finland,28,111.8,Open,125,,,,,,-150,150,-155,,150,,,,,,150,B,M,Raw,
7,Dávid Ruml,Slovakia,24,103.7,Open,110,,,,,,80,90,-100,,90,,,,,,90,B,M,Raw,
1,Martin Tuček,Czechia,30,131.7,Open,140,,,,,,220,245,-260,,245,,,,,,245,B,M,Raw,
2,Djordje Elčić,Serbia,28,186.8,Open,140+,,,,,,180,190,-195,,190,,,,,,190,B,M,Raw,
3,Adam Kekelák,Slovakia,27,132.8,Open,140,,,,,,172.5,180,-190,,180,,,,,,180,B,M,Raw,
4,Richard Prievozník,Slovakia,33,138.6,Open,140,,,,,,150,160,,,160,,,,,,160,B,M,Raw,
1,Marián Milý,Slovakia,48,103.2,Masters 45-49,110,,,,,,160,-170,,,160,,,,,,160,B,M,Raw,
2,Pavel Balážik,Slovakia,42,62.9,Masters 40-44,67.5,,,,,,80,85,90,-95,90,,,,,,90,B,M,Raw,
1,Anton Frič,Slovakia,49,86,Masters 45-49,90,,,,,,150,162.5,170,,170,,,,,,170,B,M,Raw,
2,Ján Cuprišin,Slovakia,48,88.5,Masters 45-49,90,,,,,,130,142.5,152.5,,152.5,,,,,,152.5,B,M,Raw,
1,Jozef Kišš,Slovakia,46,94.1,Masters 45-49,100,,,,,,180,190,-197.5,-200,190,,,,,,190,B,M,Raw,
2,Štefan Sokoly,Slovakia,46,98.1,Masters 45-49,100,,,,,,175,185,-193,,185,,,,,,185,B,M,Raw,
3,Michal Švajka,Slovakia,43,97.6,Masters 40-44,100,,,,,,155,-165,165,,165,,,,,,165,B,M,Raw,
1,Marek Lipták,Slovakia,44,124.8,Masters 40-44,125,,,,,,190,200,-210,,200,,,,,,200,B,M,Raw,
2,Marcel Baláž,Slovakia,44,104.4,Masters 40-44,110,,,,,,177.5,185,190,,190,,,,,,190,B,M,Raw,
3,Andrej Smutný,Slovakia,44,105.2,Masters 40-44,110,,,,,,180,187.5,-192.5,,187.5,,,,,,187.5,B,M,Raw,
4,Michal Kráľ,Slovakia,40,122.1,Masters 40-44,125,,,,,,172.5,177.5,182.5,,182.5,,,,,,182.5,B,M,Raw,
1,Sándor Vörös,Slovakia,47,138.2,Masters 45-49,140,,,,,,170,185,-200,,185,,,,,,185,B,M,Raw,
2,Peter Pletka,Slovakia,46,125.2,Masters 45-49,140,,,,,,150,160,162.5,,162.5,,,,,,162.5,B,M,Raw,
3,Jozef Minár,Slovakia,45,127.3,Masters 45-49,140,,,,,,145,152.5,160,,160,,,,,,160,B,M,Raw,
1,Tám Nguyen #1,Slovakia,51,87.2,Masters 50-54,90,,,,,,130,140,-150.5,,140,,,,,,140,B,M,Raw,
2,Róbert Papcún,Slovakia,56,77.5,Masters 55-59,82.5,,,,,,110,115,-120,-120,115,,,,,,115,B,M,Raw,
DQ,Zoltán Molnár,Slovakia,55,82.3,Masters 55-59,82.5,,,,,,-106,-106,-106,,,,,,,,,B,M,Raw,
1,Tibor Pukáč,Slovakia,51,98.6,Masters 50-54,100,,,,,,165,172.5,175,-180.5,175,,,,,,175,B,M,Raw,
2,František Sajko,Slovakia,50,98,Masters 50-54,100,,,,,,142.5,152.5,162.5,,162.5,,,,,,162.5,B,M,Raw,
3,Marcel Konopa,Slovakia,50,97.1,Masters 50-54,100,,,,,,-110,110,-125,,110,,,,,,110,B,M,Raw,
1,Jozef Belica,Slovakia,65,99.9,Masters 65-69,100,,,,,,120,130,140,,140,,,,,,140,B,M,Raw,
1,Rémy Krayzel,Czechia,66,85.5,Masters 65-69,90,,,,,,155,160,165,,165,,,,,,165,B,M,Raw,
2,Karel Schoř,Czechia,66,81.1,Masters 65-69,82.5,,,,,,125,135,140,,140,,,,,,140,B,M,Raw,
1,Jaroslav Šolc,Slovakia,65,109.3,Masters 65-69,110,,,,,,150,157.5,162.5,,162.5,,,,,,162.5,B,M,Raw,
1,Karel Leibl,Czechia,68,107.6,Masters 65-69,110,,,,,,100,110,-115,,110,,,,,,110,B,M,Raw,
1,Milan Vojačik,Slovakia,21,59,Juniors 20-23,60,,,,,,100,105.5,110,115,110,,,,,,110,B,M,Multi-ply,
DQ,Marián Milý,Slovakia,48,103.2,Masters 45-49,110,,,,,,-190,-190,-190,,,,,,,,,B,M,Multi-ply,
1,Erik Kondákor,Slovakia,35,67.5,Submasters 35-39,67.5,,,,,,130,140,150.5,-160,150.5,,,,,,150.5,B,M,Multi-ply,
1,Erik Valent,Slovakia,37,80.6,Submasters 35-39,82.5,,,,,,200,210,-217.5,,210,,,,,,210,B,M,Multi-ply,
2,Petr Skřinář,Czechia,27,86.3,Open,90,,,,,,210,-215,-217.5,,210,,,,,,210,B,M,Multi-ply,
3,Ľubomír Samseli,Slovakia,35,81.8,Submasters 35-39,82.5,,,,,,150,-157.5,157.5,,157.5,,,,,,157.5,B,M,Multi-ply,
1,Szuder Károly,Hungary,35,97.7,Open,100,,,,,,210,-215,,,210,,,,,,210,B,M,Multi-ply,
1,Matej Krišica,Slovakia,36,116.5,Submasters 35-39,125,,,,,,230,250,-262.5,,250,,,,,,250,B,M,Multi-ply,
2,Ján Šiska,Slovakia,42,118.5,Open,125,,,,,,202.5,212.5,217.5,,217.5,,,,,,217.5,B,M,Multi-ply,
3,Peter Funtík,Slovakia,43,113.3,Open,125,,,,,,200,210,-215,,210,,,,,,210,B,M,Multi-ply,
4,Jozef Völgyák,Slovakia,39,103.6,Submasters 35-39,110,,,,,,170,175,-180,,175,,,,,,175,B,M,Multi-ply,
G,Adela Sisková,Slovakia,15,66.9,Guest,67.5,,,,,,,,,,,70,80,85,,85,85,D,F,Raw,
G,Denisa Funtíková,Slovakia,15,58.7,Guest,60,,,,,,,,,,,50,65,75,,75,75,D,F,Raw,
G,Vivien Jackuliaková,Slovakia,14,61.4,Guest,67.5,,,,,,,,,,,55,65,-75,,65,65,D,F,Raw,
1,Laura Holičová,Slovakia,18,65.7,Teen 18-19,67.5,,,,,,,,,,,125,140,-150,,140,140,D,F,Raw,
1,Terézia Sobotová,Slovakia,21,53.8,Juniors 20-23,56,,,,,,,,,,,100,115,120,,120,120,D,F,Raw,
1,Simona Lacková,Slovakia,29,51.4,Open,52,,,,,,,,,,,110,120,125,,125,125,D,F,Raw,
1,Veronika Greinerová,Slovakia,25,66.7,Open,67.5,,,,,,,,,,,-105,110,120,,120,120,D,F,Raw,
1,Marcela Támarová,Slovakia,36,80.5,Open,82.5,,,,,,,,,,,145,157.5,165,,165,165,D,F,Raw,
1,Daniela Poláková,Czechia,45,60.5,Masters 45-49,67.5,,,,,,,,,,,135,-150,150,,150,150,D,F,Raw,
1,Klaudia Tanczos,Slovakia,48,72.6,Masters 45-49,75,,,,,,,,,,,90,95,100,,100,100,D,F,Raw,
1,Katarína Zajková,Slovakia,60,73,Masters 60-64,75,,,,,,,,,,,135,140,151,,151,151,D,F,Raw,
1,Filip Šimčík,Slovakia,16,66.6,Teen 16-17,67.5,,,,,,,,,,,140,150,165,,165,165,D,M,Raw,
2,Dávid Horváth,Slovakia,16,70.1,Teen 16-17,75,,,,,,,,,,,155,-165,165,,165,165,D,M,Raw,
1,Hugo Kollár,Slovakia,17,96,Teen 16-17,100,,,,,,,,,,,195,200,-210,,200,200,D,M,Raw,
2,Peter Husár,Slovakia,17,94.6,Teen 16-17,100,,,,,,,,,,,170,185,190,,190,190,D,M,Raw,
1,Matúš Užík,Slovakia,18,87,Teen 18-19,90,,,,,,,,,,,180,190,205,,205,205,D,M,Raw,
1,Daniel Kmetík,Slovakia,19,115,Teen 18-19,125,,,,,,,,,,,200,220,222.5,,222.5,222.5,D,M,Raw,
1,Peter Vašek,Slovakia,18,127.1,Teen 18-19,140,,,,,,,,,,,-190,190,-210,,190,190,D,M,Raw,
1,Matúš Kerekeš,Slovakia,20,74,Juniors 20-23,75,,,,,,,,,,,180,195,-200,,195,195,D,M,Raw,
DQ,Dominik Baran,Slovakia,23,80.7,Juniors 20-23,82.5,,,,,,,,,,,,,,,,,D,M,Raw,
1,Samuel Daniš,Slovakia,20,86.9,Juniors 20-23,90,,,,,,,,,,,205,225,235,,235,235,D,M,Raw,
2,Adrián Untermayer,Slovakia,22,89.8,Juniors 20-23,90,,,,,,,,,,,210,225,235,,235,235,D,M,Raw,
3,Martin Nižnianský,Slovakia,23,86.9,Juniors 20-23,90,,,,,,,,,,,190,210,230,,230,230,D,M,Raw,
4,Dávid Haninčik,Slovakia,22,78.8,Juniors 20-23,82.5,,,,,,,,,,,200,210,217.5,,217.5,217.5,D,M,Raw,
5,Adrián Kolibár,Slovakia,21,80.1,Juniors 20-23,82.5,,,,,,,,,,,-210,210,-215,,210,210,D,M,Raw,
6,Peter Minárik,Slovakia,23,82,Juniors 20-23,82.5,,,,,,,,,,,-140,150,160,,160,160,D,M,Raw,
7,Jakub Kuba,Slovakia,21,85.5,Juniors 20-23,90,,,,,,,,,,,-120,135,150,,150,150,D,M,Raw,
1,Tomaš Bobok,Slovakia,22,115.3,Juniors 20-23,125,,,,,,,,,,,170,190,210,,210,210,D,M,Raw,
1,Peter Rozboril,Slovakia,23,125.7,Juniors 20-23,140,,,,,,,,,,,260,277.5,280.5,,280.5,280.5,D,M,Raw,
1,Ján Šebo,Slovakia,30,73.9,Open,75,,,,,,,,,,,200,-215,-215,,200,200,D,M,Raw,
DQ,Maciej Markowski #2,Slovakia,37,87.5,Submasters 35-39,90,,,,,,,,,,,,,,,,,D,M,Raw,
1,Lukáš Tlstý,Slovakia,29,86.9,Open,90,,,,,,,,,,,285,295,300,-313,300,300,D,M,Raw,
2,Dominik Šafránek,Slovakia,30,85.8,Open,90,,,,,,,,,,,270,-280,-285,,270,270,D,M,Raw,
3,András Vass,Slovakia,27,88,Open,90,,,,,,,,,,,260,270,-275,,270,270,D,M,Raw,
4,Oliver Jackanin,Slovakia,29,89.6,Open,90,,,,,,,,,,,260,270,-277.5,,270,270,D,M,Raw,
5,Kristián Šuchter,Slovakia,24,78.1,Open,82.5,,,,,,,,,,,215,217.5,-220,,217.5,217.5,D,M,Raw,
6,Šimon Michalov,Slovakia,29,87.5,Open,90,,,,,,,,,,,200,210,215,,215,215,D,M,Raw,
7,Martin Mihálik,Slovakia,25,82.5,Open,82.5,,,,,,,,,,,120,140,160,-180,160,160,D,M,Raw,
1,Šimon Elischer,Slovakia,25,99.1,Open,100,,,,,,,,,,,260,270,-272.5,,270,270,D,M,Raw,
2,Tomáš Kríž,Slovakia,29,96.3,Open,100,,,,,,,,,,,255,260,-262.5,,260,260,D,M,Raw,
3,Štefan Elischer,Slovakia,39,97.5,Submasters 35-39,100,,,,,,,,,,,230,240,250,-260,250,250,D,M,Raw,
4,Tomáš Knotek,Slovakia,29,99.1,Open,100,,,,,,,,,,,240,250,-270,,250,250,D,M,Raw,
1,Stanislav Močkor,Slovakia,25,110,Open,110,,,,,,,,,,,280,-300,300,,300,300,D,M,Raw,
2,Jozef Harandza,Slovakia,39,118,Submasters 35-39,125,,,,,,,,,,,250,265,-282.5,,265,265,D,M,Raw,
3,Dávid Ruml,Slovakia,24,103.7,Open,110,,,,,,,,,,,150,160,170,,170,170,D,M,Raw,
1,Róbert Šimko,Slovakia,35,147.1,Submasters 35-39,140+,,,,,,,,,,,300,310,322.5,,322.5,322.5,D,M,Raw,
2,Róbert Blácha,Slovakia,32,133.2,Open,140,,,,,,,,,,,300,320,-325,,320,320,D,M,Raw,
3,Tomáš Thüringer,Slovakia,33,146.2,Open,140+,,,,,,,,,,,200,220,250,,250,250,D,M,Raw,
1,Miroslav Kuba,Slovakia,47,57.6,Masters 45-49,60,,,,,,,,,,,80,100,-110,,100,100,D,M,Raw,
1,Ivan Šoltýs,Slovakia,44,87.7,Masters 40-44,90,,,,,,,,,,,150,160,,,160,160,D,M,Raw,
1,Marián Csadi,Slovakia,47,93.7,Masters 45-49,100,,,,,,,,,,,230,240,250,,250,250,D,M,Raw,
2,Michal Švajka,Slovakia,43,97.6,Masters 40-44,100,,,,,,,,,,,205,222.5,,,222.5,222.5,D,M,Raw,
1,Marek Lipták,Slovakia,44,124.8,Masters 40-44,125,,,,,,,,,,,280,,,,280,280,D,M,Raw,
2,Michal Kráľ,Slovakia,40,122.1,Masters 40-44,125,,,,,,,,,,,235,-245,252.5,,252.5,252.5,D,M,Raw,
3,Marián Milý,Slovakia,48,103.2,Masters 45-49,110,,,,,,,,,,,220,240,250,,250,250,D,M,Raw,
1,Martin Olejár,Slovakia,41,157.5,Masters 40-44,140+,,,,,,,,,,,280,300,320,,320,320,D,M,Raw,
1,Tám Nguyen #1,Slovakia,51,87.2,Masters 50-54,90,,,,,,,,,,,150,160,170,,170,170,D,M,Raw,
1,Tibor Gejdoš,Slovakia,58,102.5,Masters 55-59,110,,,,,,,,,,,225,250,262.5,,262.5,262.5,D,M,Raw,
2,Marián Hudec,Slovakia,52,106.4,Masters 50-54,110,,,,,,,,,,,245,255,262.5,265,262.5,262.5,D,M,Raw,
1,František Albert,Slovakia,70,74.1,Masters 70-74,75,,,,,,,,,,,90,100,110,,110,110,D,M,Raw,
1,Rémy Krayzel,Czechia,66,85.5,Masters 65-69,90,,,,,,,,,,,210,220,230,,230,230,D,M,Raw,
2,Karel Schoř,Czechia,66,81.1,Masters 65-69,82.5,,,,,,,,,,,175,-190,-195,,175,175,D,M,Raw,
1,Peter Herák,Slovakia,61,92,Masters 60-64,100,,,,,,,,,,,215,230,235,,235,235,D,M,Raw,
2,Ondrej Döme,Slovakia,66,96,Masters 65-69,100,,,,,,,,,,,135,150,,,150,150,D,M,Raw,
1,Martin Nižnianský,Slovakia,23,86.9,Juniors 20-23,90,,,,,,,,,,,220,240,250,,250,250,D,M,Multi-ply,
1,Michal Hudák,Slovakia,20,91.6,Juniors 20-23,100,,,,,,,,,,,250,265,-275,,265,265,D,M,Multi-ply,
1,Nicolas Tóth,Slovakia,23,113.8,Juniors 20-23,125,,,,,,,,,,,280,310,,,310,310,D,M,Multi-ply,
1,Michal Móry,Slovakia,43,74.6,Open,75,,,,,,,,,,,215,227.5,-240,,227.5,227.5,D,M,Multi-ply,
2,Tomáš Čan,Slovakia,33,73.7,Open,75,,,,,,,,,,,150,175,182.5,,182.5,182.5,D,M,Multi-ply,
1,Lukáš Tlstý,Slovakia,29,86.9,Open,90,,,,,,,,,,,275.5,290,305,,305,305,D,M,Multi-ply,
2,Ivan Egyed,Slovakia,27,85,Open,90,,,,,,,,,,,250,-280,-300,,250,250,D,M,Multi-ply,
3,Ivan Lazor,Slovakia,30,84.5,Open,90,,,,,,,,,,,-225,225,242.5,,242.5,242.5,D,M,Multi-ply,
4,Jozef Svitek,Slovakia,27,86.6,Open,90,,,,,,,,,,,160,182.5,-202.5,,182.5,182.5,D,M,Multi-ply,
1,Peter Lincmaier,Slovakia,38,95.4,Submasters 35-39,100,,,,,,,,,,,250,275,-302.5,,275,275,D,M,Multi-ply,
1,Nicolas Tóth,Slovakia,23,113.8,Open,125,,,,,,,,,,,320,-340,-340,,320,320,D,M,Multi-ply,
2,René Cicák,Slovakia,30,107.9,Open,110,,,,,,,,,,,200,220,230,,230,230,D,M,Multi-ply,
1,Péter Pintér,Slovakia,36,125.1,Submasters 35-39,140,,,,,,,,,,,280,300,310,,310,310,D,M,Multi-ply,
2,Jozef Staňa,Slovakia,34,126.6,Open,140,,,,,,,,,,,230,240,250,,250,250,D,M,Multi-ply,
1,Marcel Vasilenko,Slovakia,42,89.5,Masters 40-44,90,,,,,,,,,,,240,250,255,-260,255,255,D,M,Multi-ply,
2,Ján Cuprišin,Slovakia,48,88.5,Masters 45-49,90,,,,,,,,,,,235,245,-252.5,,245,245,D,M,Multi-ply,
3,Michal Buranský,Slovakia,41,83.4,Masters 40-44,90,,,,,,,,,,,225,-232.5,-235,,225,225,D,M,Multi-ply,
1,Štefan Sokoly,Slovakia,46,98.1,Masters 45-49,100,,,,,,,,,,,290,307.5,315,,315,315,D,M,Multi-ply,
1,Rudolf Siska,Slovakia,50,87.6,Masters 50-54,90,,,,,,,,,,,170,180,-190,,180,180,D,M,Multi-ply,
1,Karol Kornel Repiský,Slovakia,57,123.3,Masters 55-59,125,,,,,,,,,,,230,240,-247.5,,240,240,D,M,Multi-ply,
1,Adam Csupori,Slovakia,64,95,Masters 60-64,100,,,,,,,,,,,225,235,-245,,235,235,D,M,Multi-ply,
2,Michal Červinka,Slovakia,62,93.5,Masters 60-64,100,,,,,,,,,,,190,205,-212.5,,205,205,D,M,Multi-ply,
1,Monika Vaľková,Slovakia,20,66.4,Juniors 20-23,67.5,150,160,165.5,,165.5,85,90,95,,95,160,170,-180,,170,430.5,SBD,F,Raw,
2,Alexandra Hubinská,Slovakia,21,62.1,Juniors 20-23,67.5,147.5,155,-162.5,,155,77.5,-82.5,82.5,,82.5,137.5,145,155,,155,392.5,SBD,F,Wraps,
3,Lucia Ďurčová,Slovakia,23,58.8,Juniors 20-23,60,120,125,130,,130,42.5,47.5,-50,,47.5,130,140,148,,148,325.5,SBD,F,Wraps,
1,Paulína Stohlová,Slovakia,20,81.7,Juniors 20-23,82.5,95,100,-105,,100,40,45,47.5,-50,47.5,125,130,135,-137.5,135,282.5,SBD,F,Wraps,
1,Gabika Kyselová,Slovakia,36,52.6,Submasters 35-39,56,90,100,110,115,110,40,43,45,46.5,45,100,110,120,125,120,275,SBD,F,Wraps,
1,Martina Vargová,Slovakia,33,59.8,Open,60,-115,115,122.5,,122.5,65,70,72.5,,72.5,125,132.5,140,148,140,335,SBD,F,Wraps,
2,Šarlota Kaňuková,Slovakia,26,58.6,Open,60,100,-105,-105,,100,47.5,50,-52.5,,50,125,130,135,,135,285,SBD,F,Wraps,
3,Tatiana Ondziková,Slovakia,36,66.3,Submasters 35-39,67.5,65,72.5,80,,80,42.5,47.5,-55,,47.5,80,92.5,-100,,92.5,220,SBD,F,Wraps,
1,Marie Tomečková,Czechia,24,82.5,Open,82.5,135,150,165,,165,65,-72.5,80,,80,165,175,185,,185,430,SBD,F,Wraps,
2,Monika Mondoková,Slovakia,33,79.5,Open,82.5,65,72.5,77.5,,77.5,40,45,-47.5,,45,80,87.5,95,,95,217.5,SBD,F,Wraps,
1,Květuše Baranovičová,Slovakia,69,56.6,Masters 65-69,60,50,55,-60,,55,30,35,,,35,70,80,90,,90,180,SBD,F,Wraps,
G,Patrik Soľár,Slovakia,14,50.8,Guest,52,60,65,72.5,,72.5,35,40,-42.5,,40,65,70,-80,,70,182.5,SBD,M,Wraps,
G,Alex Beer,Slovakia,15,89.1,Guest,90,110,115,120,,120,65,-70,70,,70,100,110,-120,,110,300,SBD,M,Wraps,
1,Tomáš Parížek,Slovakia,17,56.5,Teen 16-17,60,130,140,145,,145,60,-70,70,,70,150,160,170,,170,385,SBD,M,Wraps,
2,Adam Mišík,Slovakia,16,60,Teen 16-17,60,110,-120,120,,120,65,70,-75,,70,-110,110,130,,130,320,SBD,M,Wraps,
1,Samuel Petrík,Slovakia,17,74.7,Teen 16-17,75,150,160,170,181,170,65,75,-80,,75,150,165,175,,175,420,SBD,M,Wraps,
1,Andrej Puchoň,Slovakia,17,88,Teen 16-17,90,180,195,-206.5,,195,110,115,120,,120,250,265,275,-285,275,590,SBD,M,Wraps,
2,Samuel Hippík,Slovakia,17,85.9,Teen 16-17,90,170,185,200,,200,90,100,105,,105,190,205,212.5,,212.5,517.5,SBD,M,Wraps,
3,Viliam Herák,Slovakia,17,87.6,Teen 16-17,90,165,180,195,,195,-100,100,110,,110,192.5,202.5,210,,210,515,SBD,M,Wraps,
4,Ivan Ježo,Slovakia,17,84.4,Teen 16-17,90,170,180,187.5,,187.5,105,115,-125,,115,-180,180,192.5,,192.5,495,SBD,M,Wraps,
5,Timotej Kunštek,Slovakia,16,86.5,Teen 16-17,90,150,160,-170,,160,-80,-80,80,,80,170,180,-190,,180,420,SBD,M,Wraps,
6,Maximilián Belica,Slovakia,17,87.4,Teen 16-17,90,120,130,140,,140,75,82.5,-85,,82.5,130,145,155,,155,377.5,SBD,M,Wraps,
7,Viktor Orta,Slovakia,17,75.4,Teen 16-17,82.5,90,-100,-100,,90,70,-75,-75,,70,-120,120,-130,,120,280,SBD,M,Wraps,
1,Samuel Košťál,Slovakia,17,97.2,Teen 16-17,100,150,-165,-165,,150,105,-112.5,-112.5,,105,210,222.5,225,,225,480,SBD,M,Wraps,
2,Tomáš Tarkoš,Slovakia,17,92.4,Teen 16-17,100,160,170,-190,,170,70,-80,-80,,70,160,180,-200,,180,420,SBD,M,Wraps,
1,Marek Svitok,Slovakia,18,59.3,Teen 18-19,60,110,120,125,,125,75,85,90,,90,120,130,-140,,130,345,SBD,M,Wraps,
1,Patrik Zajíček,Slovakia,18,73.7,Teen 18-19,75,190,210,-220,,210,-117.5,117.5,125,,125,200,215,225,,225,560,SBD,M,Wraps,
2,Martin Dékány,Slovakia,18,73.3,Teen 18-19,75,-180,-180,180,,180,125,130,136,-138,136,-175,-175,175,,175,491,SBD,M,Wraps,
3,Pavel Kevensky,Serbia,18,72.1,Teen 18-19,75,170,-182.5,-190,,170,95,100,-105,,100,190,205,215,,215,485,SBD,M,Wraps,
4,Peter Podhorec,Slovakia,18,73.4,Teen 18-19,75,165,-180,180,,180,90,100,-105,,100,170,190,200,,200,480,SBD,M,Wraps,
DQ,Šimon Koudela,Slovakia,18,73.8,Teen 18-19,75,165,175,-180,,175,-105,-115,-115,,,,,,,,,SBD,M,Wraps,
1,Andrej Nika,Slovakia,18,80,Teen 18-19,82.5,200,215,-222.5,,215,110,120,-125,,120,220,240,253,,253,588,SBD,M,Wraps,
2,David Klukavý,Slovakia,18,79.6,Teen 18-19,82.5,195,210,217.5,,217.5,117.5,125,-130,,125,215,230,240,,240,582.5,SBD,M,Wraps,
3,Marek Blaško,Slovakia,19,88.8,Teen 18-19,90,200,210,212.5,,212.5,125,135,-140,,135,-220,220,-230,,220,567.5,SBD,M,Wraps,
4,Denis Murcin,Slovakia,18,88.8,Teen 18-19,90,-190,200,210,,210,115,-122.5,-122.5,,115,210,225,-235,,225,550,SBD,M,Wraps,
5,Oliver Lukáč,Slovakia,19,88.9,Teen 18-19,90,145,155,165,,165,105,110,-115,,110,210,215,,,215,490,SBD,M,Wraps,
1,Sebastián Kušnier,Slovakia,18,100,Teen 18-19,100,220,235,-242.5,,235,-142.5,145,-152.5,,145,225,237.5,242.5,,242.5,622.5,SBD,M,Wraps,
2,Jakub Lukáčik,Slovakia,18,98,Teen 18-19,100,190,-205,205,,205,125,132.5,-135,,132.5,225,237.5,245,,245,582.5,SBD,M,Wraps,
3,Šimon Komanický,Slovakia,18,93.5,Teen 18-19,100,180,190,-200,,190,125,135,-137.5,,135,200,210,220,,220,545,SBD,M,Wraps,
1,Filip Pecho,Slovakia,19,105,Teen 18-19,110,220,235,-245.5,,235,140,155,-162.5,,155,260,280,300,,300,690,SBD,M,Wraps,
2,Michal Lapihuska,Slovakia,18,124.2,Teen 18-19,125,-210,210,225,,225,150,160,-166,,160,250,260,-265,,260,645,SBD,M,Wraps,
3,Samuel Schulz,Slovakia,18,105.5,Teen 18-19,110,200,215,227.5,,227.5,130,145,-152.5,,145,200,220,237.5,,237.5,610,SBD,M,Wraps,
4,Daniel Kmetík,Slovakia,19,114.7,Teen 18-19,125,180,200,,,200,105,117.5,122.5,,122.5,200,220,-222.5,,220,542.5,SBD,M,Wraps,
1,Ján Zárecký,Slovakia,18,138.6,Teen 18-19,140,140,155,170,,170,117.5,127.5,-130,,127.5,160,170,185,,185,482.5,SBD,M,Wraps,
1,Daniel Kiss,Slovakia,20,73.8,Juniors 20-23,75,-160,170,180,,180,120,125,-130,,125,210,220,227.5,,227.5,532.5,SBD,M,Wraps,
2,Miroslav Sobota,Slovakia,20,74.3,Juniors 20-23,75,170,185,195,,195,127.5,-135,-135,,127.5,190,200,-207.5,,200,522.5,SBD,M,Wraps,
3,Martin Macháč,Slovakia,22,71.9,Juniors 20-23,75,167.5,177.5,190,,190,97.5,105,-115,,105,-180,190,-200,,190,485,SBD,M,Wraps,
4,Marek Fusko,Slovakia,21,73.7,Juniors 20-23,75,140,150,-160,,150,110,115,-120,,115,190,200,212.5,,212.5,477.5,SBD,M,Wraps,
5,Lukács Dömény,Slovakia,20,67.3,Juniors 20-23,67.5,160,175,195,,195,75,-85,-95,,75,170,190,-195,,190,460,SBD,M,Wraps,
1,Oliver Kurek,Slovakia,23,80.6,Juniors 20-23,82.5,255,265,275,-280,275,155,160.5,-165,,160.5,300,315,-320,,315,750.5,SBD,M,Wraps,
2,Daniel Babic,Slovakia,22,88,Juniors 20-23,90,185,195,200,,200,130,140,150,,150,230,240,-250,,240,590,SBD,M,Wraps,
3,Pavol Pančišin,Slovakia,20,88.1,Juniors 20-23,90,-180,180,200,,200,120,,,,120,200,220,-240,,220,540,SBD,M,Wraps,
4,Matúš Filip,Slovakia,21,86,Juniors 20-23,90,160,170,180,,180,110,115,-120,,115,180,-190,-190,,180,475,SBD,M,Wraps,
1,Dávid Kominko,Slovakia,20,99.2,Juniors 20-23,100,230,240,245,,245,150,160,-165,,160,250,,,,250,655,SBD,M,Wraps,
2,Kristián Matejovie,Slovakia,22,92.8,Juniors 20-23,100,175,190,-200,,190,110,115,-120,,115,200,212.5,217.5,,217.5,522.5,SBD,M,Wraps,
3,Jozef Budvesel,Slovakia,22,98,Juniors 20-23,100,170,185,-195,,185,105,110,112.5,,112.5,190,205,222.5,,222.5,520,SBD,M,Wraps,
4,Peter Sárosi,Slovakia,23,98.4,Juniors 20-23,100,170,180,190,,190,115,125,-130,,125,180,200,-210,,200,515,SBD,M,Wraps,
5,Juraj Klubník,Slovakia,20,99.7,Juniors 20-23,100,155,160,170,,170,90,95,-100,,95,180,190,205,,205,470,SBD,M,Wraps,
1,Boris Štulajter,Slovakia,21,122.7,Juniors 20-23,125,280,300,-310,,300,155,160,165,,165,270,290,300,,300,765,SBD,M,Wraps,
2,Kevin Anthony Kalapoš,Slovakia,21,106.5,Juniors 20-23,110,250,-265,-265,,250,135,142.5,-150,,142.5,255,270,-277.5,,270,662.5,SBD,M,Wraps,
1,Patrik Uváček,Slovakia,20,165.8,Juniors 20-23,140+,285,300,315,,315,190,200,205,,205,280,290,-300,,290,810,SBD,M,Wraps,
1,Florián Tichý,Slovakia,35,73.2,Open,75,175,185,200,,200,150,157.5,162.5,,162.5,220,230,240,,240,602.5,SBD,M,Wraps,
2,Pavol Halčák,Slovakia,29,67.5,Open,67.5,165,175,-180,,175,125,130,135,,135,200,215,220,,220,530,SBD,M,Wraps,
3,Marián Lipták,Slovakia,27,74,Open,75,140,-155,-155,,140,105,112.5,-115,,112.5,200,207.5,215,,215,467.5,SBD,M,Wraps,
4,Michal Tornóci,Slovakia,22,69.8,Open,75,115,125,130,,130,95,-102.5,-102.5,,95,165,175,-185,,175,400,SBD,M,Wraps,
1,Marek Molnár,Slovakia,28,88,Open,90,230,240,250,,250,150,160,170,,170,250,275,290,,290,710,SBD,M,Wraps,
2,Zdenko Bystrianský,Slovakia,32,88.4,Open,90,270,280,-290,,280,150,-160,160,,160,250,260,270,,270,710,SBD,M,Wraps,
3,Patrik Peciar,Slovakia,35,89.8,Submasters 35-39,90,235,245,255,,255,145,155,162.5,,162.5,-250,260,275,-285,275,692.5,SBD,M,Wraps,
4,Michal Sorát,Slovakia,21,89.6,Open,90,240,260,-265,,260,125,132.5,-137.5,,132.5,290,-310,-320,,290,682.5,SBD,M,Wraps,
5,Tomáš Pavlech,Slovakia,28,89.7,Open,90,230,247.5,255,,255,130,137.5,-140,,137.5,235,250,257.5,,257.5,650,SBD,M,Wraps,
6,Daniel Tatarka,Slovakia,38,77.2,Submasters 35-39,82.5,210,230,-250,,230,121,131,,,131,230,250,260.5,,260.5,621.5,SBD,M,Wraps,
7,Ján Mikuláš,Slovakia,25,89.8,Open,90,-200,-200,200,,200,-140,150,-155,,150,225,235,-245,,235,585,SBD,M,Wraps,
8,Radovan Matesz,Slovakia,25,87.8,Open,90,190,200,205,,205,125,130,-135,,130,-230,235,240,,240,575,SBD,M,Wraps,
9,Dominik Čiesla,Slovakia,34,89.2,Open,90,190,-200,200,,200,130,-140,-140,,130,180,,,,180,510,SBD,M,Wraps,
1,Marek Lipták,Slovakia,43,124.8,Open,125,280,310,-330,,310,190,-210,,,190,280,,,,280,780,SBD,M,Wraps,
2,Bence Nagy,Slovakia,27,103.8,Open,110,230,245,255,,255,165,175,180,,180,230,240,-250,,240,675,SBD,M,Wraps,
3,Andrej Blaho,Slovakia,30,104.8,Open,110,215,230,235,,235,125,135,140,,140,270,282.5,290,,290,665,SBD,M,Wraps,
4,Peter Klukavý,Slovakia,28,101.6,Open,110,220,230,240,,240,120,130,-135,,130,225,235,-242.5,,235,605,SBD,M,Wraps,
1,Zeljko Nemet,Serbia,33,134.1,Open,140,215,235,250,,250,170,185,-190,,185,275,300,-315,,300,735,SBD,M,Wraps,
1,Michal Móry,Slovakia,43,76.6,Masters 40-44,82.5,175,187.5,200,-205,200,115,120,-122.5,,120,205,215,225,230.5,225,545,SBD,M,Wraps,
2,Pavel Vechter,Slovakia,45,79.7,Masters 45-49,82.5,173,185,192.5,,192.5,122.5,127.5,,,127.5,207.5,215.5,225,,225,545,SBD,M,Wraps,
1,Marián Csadi,Slovakia,47,95.2,Masters 45-49,100,210,220,230,,230,130,150,-157.5,,150,230,242.5,250,255,250,630,SBD,M,Wraps,
2,Ladislav Mikovčík,Slovakia,40,98,Masters 40-44,100,200,210,-220,,210,155,160,-165,,160,220,230,235,,235,605,SBD,M,Wraps,
1,Pavel Kolibár,Slovakia,47,102.1,Masters 45-49,110,165,170,-175,,170,125,130,135,,135,180,190,200,,200,505,SBD,M,Wraps,
1,Milan Páleník,Slovakia,51,88.8,Masters 50-54,90,110,120,130,,130,60,70,80,,80,140,150,160,,160,370,SBD,M,Wraps,
1,Peter Lehocký,Slovakia,50,91,Masters 50-54,100,215,230,240,,240,155,167.5,-172.5,,167.5,240,265,-275,,265,672.5,SBD,M,Wraps,
1,Ivan Levický,Slovakia,51,102.2,Masters 50-54,110,190,205,-220,,205,130,140.5,145,,145,220,235,250,255.5,250,600,SBD,M,Wraps,
1,Jozef Bartek,Slovakia,77,73.3,Masters 75-79,75,55,60,62.5,,62.5,50,55,-60,,55,75,85,90.5,,90.5,208,SBD,M,Wraps,
1,Tibor Zvada,Slovakia,64,82.7,Masters 60-64,90,100,110,-115,,110,70,75,80,,80,140,150,160,,160,350,SBD,M,Wraps,
1,Jozef Meravý,Slovakia,72,98.3,Masters 70-74,100,80,115,125,,125,70,85,90,,90,130,150,155,,155,370,SBD,M,Wraps,
1,Jaroslav Šolc,Slovakia,65,109,Masters 65-69,110,190,200,210,,210,150,160,-165,,160,190,200,205,,205,575,SBD,M,Wraps,
1,Ivan Egyed,Slovakia,27,84,Open,90,255,-270,270,,270,175,185,-200,,185,255,275,295,310.5,295,750,SBD,M,Multi-ply,
2,Ľubomír Samseli,Slovakia,35,81.5,Open,82.5,-180,180,190,,190,150,160,165,,165,210,220,230,,230,585,SBD,M,Multi-ply,
1,Radoslav Radusinović,Croatia,54,123.2,Masters 50-54,125,320,340,350,,350,-225,-225,230,,230,-320,320,-330,,320,900,SBD,M,Multi-ply,
1,Milan Bartal,Slovakia,63,95.9,Masters 60-64,100,140,160,180,,180,110,120,125,,125,192.5,202.5,-212.5,,202.5,507.5,SBD,M,Multi-ply,
2,Michal Červinka,Slovakia,62,93.8,Masters 60-64,100,200,-210,210,,210,95,-105,-105,,95,190,200,-210,,200,505,SBD,M,Multi-ply,
